<svg xmlns="http://www.w3.org/2000/svg" width="389" height="176.049" viewBox="0 0 389 176.049">
    <defs>
        <style>
            .cls-1{fill:#fff}.cls-2{fill:#e7e7e7}.cls-3{fill:#c1c1c1}.cls-4{fill:#e6e6e6}.cls-5{fill:#919191}.cls-6{fill:#9c9c9c}.cls-7{fill:#d0d0d0}.cls-8{fill:#e2e2e2}.cls-9{fill:#9d9d9d}.cls-10{fill:#e0e0e0}.cls-11{fill:#fdfdfd}.cls-12{fill:#d1d1d1}.cls-13{fill:#909090}.cls-14{fill:#767676}.cls-15{fill:#a9a9a9}.cls-16{fill:#7f7f7f}.cls-17{fill:#464646}.cls-18{fill:#868686}.cls-19,.cls-36{opacity:.3}.cls-20{fill:#5b5b5b}.cls-21{fill:#848484}.cls-22{fill:#646464}.cls-23{fill:#eee}.cls-24{fill:#b2b2b2}.cls-25{fill:#979797}.cls-26{fill:#787878}.cls-27{fill:#ababab}.cls-28{fill:#cdcdcd}.cls-29{fill:#363636}.cls-30{fill:#fbfbfb}.cls-31{fill:#636363}.cls-32{fill:#929292}.cls-33{fill:#ccc}.cls-34{fill:#e5e5e5}.cls-35{fill:#838383}.cls-37{fill:#585858}.cls-38{fill:#484848}.cls-39{fill:#9a9a9a}.cls-40{fill:#030303}.cls-41{fill:#414141}.cls-42{fill:#afafaf}.cls-43{fill:#080808}.cls-44{fill:#4b4b4b}.cls-45{fill:#707070}.cls-46{fill:#7b7b7b}.cls-47{fill:#6e6e6e}
        </style>
    </defs>
    <g id="Group_3134" data-name="Group 3134" transform="translate(0 .049)">
        <path id="Rectangle_163" d="M0 0h389v176.049H0z" class="cls-1" data-name="Rectangle 163" transform="translate(0 -.049)"/>
        <g id="Group_3133" data-name="Group 3133">
            <path id="Path_20665" d="M86.083 13.562h190.4a10 10 0 0 1 10 10v116a10 10 0 0 1-10 10h-190.4a10 10 0 0 1-10-10v-116a10 10 0 0 1 10-10z" class="cls-2" data-name="Path 20665"/>
            <g id="Group_3057" data-name="Group 3057">
                <g id="Group_2299" data-name="Group 2299">
                    <g id="Group_2297" data-name="Group 2297">
                        <g id="Group_2255" data-name="Group 2255">
                            <g id="Group_2254" data-name="Group 2254">
                                <path id="Path_18732" d="M110.4 100.418l94 55.6 95.2-55.4-94.658-55.548z" class="cls-3" data-name="Path 18732"/>
                            </g>
                        </g>
                        <g id="Group_2257" data-name="Group 2257">
                            <g id="Group_2256" data-name="Group 2256">
                                <path id="Path_18733" d="M201.532 140.568a.156.156 0 0 0 .156-.156.157.157 0 0 0-.078-.135 3.646 3.646 0 0 0-2.184-.515 3.583 3.583 0 0 1-3.442-1.99 3.9 3.9 0 0 0-3.723-2.152 3.328 3.328 0 0 1-2.023-.474.156.156 0 0 0-.156.271 3.637 3.637 0 0 0 2.185.515 3.585 3.585 0 0 1 3.443 1.99 3.9 3.9 0 0 0 3.723 2.151 3.321 3.321 0 0 1 2.021.474.155.155 0 0 0 .078.021z" class="cls-4" data-name="Path 18733"/>
                            </g>
                        </g>
                        <g id="Group_2259" data-name="Group 2259">
                            <g id="Group_2258" data-name="Group 2258">
                                <path id="Path_18734" d="M195.6 123.078a.156.156 0 0 0 .156-.156.157.157 0 0 0-.078-.135 3.639 3.639 0 0 0-2.184-.515 3.582 3.582 0 0 1-3.442-1.99 3.9 3.9 0 0 0-3.723-2.152 3.328 3.328 0 0 1-2.023-.474.156.156 0 0 0-.164.266l.008.005a3.63 3.63 0 0 0 2.185.515 3.585 3.585 0 0 1 3.443 1.99 3.9 3.9 0 0 0 3.723 2.151 3.328 3.328 0 0 1 2.021.474.155.155 0 0 0 .078.021z" class="cls-4" data-name="Path 18734"/>
                            </g>
                        </g>
                        <g id="Group_2261" data-name="Group 2261">
                            <g id="Group_2260" data-name="Group 2260">
                                <path id="Path_18735" d="M239.011 125.264a.157.157 0 0 0 .078-.292 3.646 3.646 0 0 0-2.184-.515 3.583 3.583 0 0 1-3.442-1.99 3.9 3.9 0 0 0-3.723-2.151 3.343 3.343 0 0 1-2.023-.474.156.156 0 0 0-.164.265h.008a3.637 3.637 0 0 0 2.185.516 3.581 3.581 0 0 1 3.443 1.99 3.9 3.9 0 0 0 3.721 2.151 3.315 3.315 0 0 1 2.022.473.159.159 0 0 0 .079.027z" class="cls-4" data-name="Path 18735"/>
                            </g>
                        </g>
                        <g id="Group_2263" data-name="Group 2263">
                            <g id="Group_2262" data-name="Group 2262">
                                <path id="Path_18736" d="M199.034 106.525a.156.156 0 0 0 .156-.156.157.157 0 0 0-.078-.135 3.646 3.646 0 0 0-2.184-.515 3.582 3.582 0 0 1-3.442-1.99 3.9 3.9 0 0 0-3.723-2.152 3.328 3.328 0 0 1-2.023-.474.156.156 0 0 0-.156.27 3.623 3.623 0 0 0 2.185.516 3.584 3.584 0 0 1 3.444 1.99 3.892 3.892 0 0 0 3.722 2.151 3.329 3.329 0 0 1 2.022.473.152.152 0 0 0 .077.022z" class="cls-4" data-name="Path 18736"/>
                            </g>
                        </g>
                        <g id="Group_2265" data-name="Group 2265">
                            <g id="Group_2264" data-name="Group 2264">
                                <path id="Path_18737" d="M218.4 107.149a.156.156 0 0 0 .156-.156.157.157 0 0 0-.078-.135 3.646 3.646 0 0 0-2.184-.515 3.582 3.582 0 0 1-3.442-1.99 3.9 3.9 0 0 0-3.723-2.152 3.328 3.328 0 0 1-2.023-.474.156.156 0 0 0-.165.265l.009.005a3.63 3.63 0 0 0 2.185.516 3.585 3.585 0 0 1 3.443 1.99 3.9 3.9 0 0 0 3.723 2.151 3.327 3.327 0 0 1 2.021.473.146.146 0 0 0 .078.022z" class="cls-4" data-name="Path 18737"/>
                            </g>
                        </g>
                        <g id="Group_2267" data-name="Group 2267">
                            <g id="Group_2266" data-name="Group 2266">
                                <path id="Path_18738" d="M178.109 96.843a.156.156 0 0 0 .156-.156.157.157 0 0 0-.078-.135 3.646 3.646 0 0 0-2.187-.515 3.583 3.583 0 0 1-3.442-1.99 3.9 3.9 0 0 0-3.723-2.152 3.328 3.328 0 0 1-2.023-.474.156.156 0 0 0-.165.265l.009.005a3.63 3.63 0 0 0 2.185.516 3.585 3.585 0 0 1 3.443 1.99 3.893 3.893 0 0 0 3.721 2.151 3.335 3.335 0 0 1 2.022.473.15.15 0 0 0 .082.022z" class="cls-4" data-name="Path 18738"/>
                            </g>
                        </g>
                        <g id="Group_2269" data-name="Group 2269">
                            <g id="Group_2268" data-name="Group 2268">
                                <path id="Path_18739" d="M156.559 120.267a.157.157 0 0 0 .078-.292 3.639 3.639 0 0 0-2.184-.515 3.583 3.583 0 0 1-3.442-1.99 3.9 3.9 0 0 0-3.723-2.151 3.342 3.342 0 0 1-2.023-.474.156.156 0 0 0-.164.265h.008a3.637 3.637 0 0 0 2.185.516 3.581 3.581 0 0 1 3.443 1.99 3.9 3.9 0 0 0 3.721 2.151 3.315 3.315 0 0 1 2.022.473.16.16 0 0 0 .079.027z" class="cls-4" data-name="Path 18739"/>
                            </g>
                        </g>
                        <g id="Group_2271" data-name="Group 2271">
                            <g id="Group_2270" data-name="Group 2270">
                                <path id="Path_18740" d="M182.793 130.885a.156.156 0 0 0 .156-.156.157.157 0 0 0-.078-.135 3.646 3.646 0 0 0-2.184-.515 3.582 3.582 0 0 1-3.442-1.99 3.9 3.9 0 0 0-3.723-2.151 3.343 3.343 0 0 1-2.023-.474.156.156 0 0 0-.164.265l.008.005a3.637 3.637 0 0 0 2.185.516 3.584 3.584 0 0 1 3.444 1.99 3.9 3.9 0 0 0 3.721 2.151 3.321 3.321 0 0 1 2.022.473.155.155 0 0 0 .078.021z" class="cls-4" data-name="Path 18740"/>
                            </g>
                        </g>
                        <g id="Group_2273" data-name="Group 2273">
                            <g id="Group_2272" data-name="Group 2272">
                                <path id="Path_18741" d="M194.662 89.659a.156.156 0 0 0 .156-.156.157.157 0 0 0-.078-.135 3.639 3.639 0 0 0-2.184-.515 3.583 3.583 0 0 1-3.442-1.99 3.9 3.9 0 0 0-3.723-2.152 3.329 3.329 0 0 1-2.023-.474.156.156 0 0 0-.165.265l.009.005a3.623 3.623 0 0 0 2.185.516 3.585 3.585 0 0 1 3.443 1.99 3.893 3.893 0 0 0 3.721 2.151 3.328 3.328 0 0 1 2.022.473.15.15 0 0 0 .079.022z" class="cls-4" data-name="Path 18741"/>
                            </g>
                        </g>
                        <g id="Group_2275" data-name="Group 2275">
                            <g id="Group_2274" data-name="Group 2274">
                                <path id="Path_18742" d="M204.454 162.438l95.257-55.42v-6.407l-95.257 55.419z" class="cls-5" data-name="Path 18742"/>
                            </g>
                        </g>
                        <g id="Group_2277" data-name="Group 2277">
                            <g id="Group_2276" data-name="Group 2276">
                                <path id="Path_18743" d="M204.454 162.435l-94.008-55.575v-6.644l94.008 55.811z" class="cls-5" data-name="Path 18743"/>
                            </g>
                        </g>
                        <g id="Group_2279" data-name="Group 2279">
                            <g id="Group_2278" data-name="Group 2278">
                                <path id="Path_18744" d="M136.76 115.871v6.578l-26.4-15.585v-6.645z" class="cls-6" data-name="Path 18744"/>
                            </g>
                        </g>
                        <g id="Group_2288" data-name="Group 2288">
                            <g id="Group_2281" data-name="Group 2281">
                                <g id="Group_2280" data-name="Group 2280">
                                    <path id="Path_18745" d="M242.007 124.022l-.029-.022-.829-.641z" class="cls-7" data-name="Path 18745"/>
                                </g>
                            </g>
                            <g id="Group_2283" data-name="Group 2283">
                                <g id="Group_2282" data-name="Group 2282">
                                    <path id="Path_18746" d="M242.007 124.022l-.029-.022-.829-.641z" class="cls-7" data-name="Path 18746"/>
                                </g>
                            </g>
                            <g id="Group_2285" data-name="Group 2285">
                                <g id="Group_2284" data-name="Group 2284">
                                    <path id="Path_18747" d="M247.932 127.66a34.2 34.2 0 0 1-5.218-3.113c-8-6.438-13.741-14.915-20.371-22.654A64.02 64.02 0 0 0 195.193 83c-14.655-5.127-32.523-2.747-43.3 9.083a76.656 76.656 0 0 0-10.21 15c-1.61 2.932-3.189 5.9-4.941 8.749l-26.334-15.615L204.97 44.85l94.786 55.758-48.3 28.111a32.366 32.366 0 0 1-3.524-1.059z" class="cls-8" data-name="Path 18747"/>
                                </g>
                            </g>
                            <g id="Group_2287" data-name="Group 2287">
                                <g id="Group_2286" data-name="Group 2286">
                                    <path id="Path_18748" d="M294.8 100.6l-89.837-52.85-89.637 52.483 20.541 12.179c.964-1.665 1.893-3.367 2.8-5.028q.409-.751.821-1.5A79.2 79.2 0 0 1 150.042 90.4c7.317-8.03 18-12.453 30.074-12.453a48.766 48.766 0 0 1 15.9 2.693 66.261 66.261 0 0 1 28.223 19.627c1.85 2.162 3.651 4.4 5.391 6.565 4.646 5.78 9.036 11.24 14.6 15.728a31.868 31.868 0 0 0 4.676 2.8q1.049.378 2.176.69z" class="cls-7" data-name="Path 18748"/>
                                </g>
                            </g>
                        </g>
                        <g id="Group_2292" data-name="Group 2292">
                            <g id="Group_2291" data-name="Group 2291">
                                <path id="Path_18750" d="M252.727 88.774a1.162 1.162 0 0 1-.261-.776 1.285 1.285 0 0 1 2.467-.5c-.749.421-1.462.818-2.206 1.276z" class="cls-6" data-name="Path 18750"/>
                            </g>
                        </g>
                    </g>
                    <g id="Group_2298" data-name="Group 2298">
                        <path id="Path_18753" d="M251.5 128.692l48.25-28.081v6.408L251.5 135.1z" class="cls-6" data-name="Path 18753"/>
                    </g>
                </g>
                <g id="Group_2310" data-name="Group 2310">
                    <g id="Group_2304" data-name="Group 2304">
                        <g id="Group_2300" data-name="Group 2300">
                            <path id="Path_18754" d="M243.5 133.163l-8.109 4.4s-16.682-11.39-10.5-14.963 18.609 10.563 18.609 10.563z" class="cls-9" data-name="Path 18754"/>
                        </g>
                        <g id="Group_2301" data-name="Group 2301">
                            <path id="Path_18755" d="M243.66 130.387l-8.15 4.4s-16.755-8.8-10.569-12.371 18.719 7.971 18.719 7.971z" class="cls-10" data-name="Path 18755"/>
                        </g>
                        <g id="Group_2302" data-name="Group 2302">
                            <path id="Path_18756" d="M235.491 137.636l8.327-4.474v-2.776l-8.189 4.4z" class="cls-9" data-name="Path 18756"/>
                        </g>
                        <g id="Group_2303" data-name="Group 2303">
                            <path id="Path_18757" d="M236.323 130.776l-6.577-3.976 6.577-12z" class="cls-11" data-name="Path 18757"/>
                        </g>
                    </g>
                    <g id="Group_2309" data-name="Group 2309">
                        <g id="Group_2305" data-name="Group 2305">
                            <path id="Path_18758" d="M195.082 113.046l-8.109 4.4s-16.682-11.39-10.5-14.964 18.609 10.564 18.609 10.564z" class="cls-9" data-name="Path 18758"/>
                        </g>
                        <g id="Group_2306" data-name="Group 2306">
                            <path id="Path_18759" d="M195.245 110.272l-8.15 4.4s-16.754-8.8-10.569-12.371 18.719 7.971 18.719 7.971z" class="cls-10" data-name="Path 18759"/>
                        </g>
                        <g id="Group_2307" data-name="Group 2307">
                            <path id="Path_18760" d="M187.079 117.519l8.33-4.474v-2.776l-8.191 4.4z" class="cls-9" data-name="Path 18760"/>
                        </g>
                        <g id="Group_2308" data-name="Group 2308">
                            <path id="Path_18761" d="M187.913 110.659l-6.577-3.976 6.577-11.994z" class="cls-11" data-name="Path 18761"/>
                        </g>
                    </g>
                </g>
                <g id="Group_2323" data-name="Group 2323">
                    <g id="Group_2314" data-name="Group 2314">
                        <g id="Group_2311" data-name="Group 2311">
                            <path id="Path_18762" d="M112.062 76.908c.023-.015.044-.023.068-.037a7.632 7.632 0 0 1 3.34-5.086 3.314 3.314 0 0 1 1.336-.459 11.5 11.5 0 0 1 1.072-2.477 10.065 10.065 0 0 1 3.5-3.69 3.526 3.526 0 0 1 3.509-.356l1.739 1.01a2.572 2.572 0 0 1 1 1.062 1.859 1.859 0 0 1 1.219.2l1.739 1.01h-.006a2.388 2.388 0 0 1 1 2.194 7.626 7.626 0 0 1-3.143 5.749l-14.612 8.436a1.944 1.944 0 0 1-2.118.133 1.087 1.087 0 0 0 .092.064l-1.739-1.01a1.994 1.994 0 0 1-.831-1.828 6.254 6.254 0 0 1 2.835-4.915z" class="cls-12" data-name="Path 18762"/>
                        </g>
                        <g id="Group_2313" data-name="Group 2313">
                            <g id="Group_2312" data-name="Group 2312">
                                <path id="Path_18763" d="M123.114 66.17a10.089 10.089 0 0 0-3.5 3.69 11.554 11.554 0 0 0-1.072 2.477 3.315 3.315 0 0 0-1.336.459 7.627 7.627 0 0 0-3.339 5.086c-.024.014-.044.022-.068.037a6.259 6.259 0 0 0-2.839 4.915c0 1.809 1.285 2.537 2.857 1.63l14.612-8.436a7.616 7.616 0 0 0 3.143-5.749c-.006-2.168-1.54-3.043-3.427-1.953-.032.018-.063.042-.094.06a3.186 3.186 0 0 0-1.429-2.572 3.532 3.532 0 0 0-3.508.356z" class="cls-1" data-name="Path 18763"/>
                            </g>
                        </g>
                    </g>
                    <g id="Group_2318" data-name="Group 2318">
                        <g id="Group_2315" data-name="Group 2315">
                            <path id="Path_18764" d="M298.619 60.63l1.155-.671a1.075 1.075 0 0 1 .788-.093c.025-.016.049-.033.074-.047h-.011l1.155-.671a1.6 1.6 0 0 1 1.614.158 3.665 3.665 0 0 1 .629.467l.964-.56.012-.007a2.339 2.339 0 0 1 2.328.235 6.662 6.662 0 0 1 2.323 2.451 6.964 6.964 0 0 1 .937 2.8c.021.011.041.02.062.033a4.981 4.981 0 0 1 2.26 3.915 1.589 1.589 0 0 1-.663 1.455l-1.154.67.022-.016a1.5 1.5 0 0 1-1.462-.041l-9.7-5.6a4.156 4.156 0 0 1-1.885-3.265 1.324 1.324 0 0 1 .552-1.213z" class="cls-12" data-name="Path 18764"/>
                        </g>
                        <g id="Group_2317" data-name="Group 2317">
                            <g id="Group_2316" data-name="Group 2316">
                                <path id="Path_18765" d="M306.169 60.119a2.344 2.344 0 0 0-2.328-.235 1.757 1.757 0 0 0-.72.818 3.872 3.872 0 0 0-.885-.717c-1.1-.636-2.02-.266-2.23.808l-.045-.028c-1.043-.6-1.893-.12-1.9 1.081a4.152 4.152 0 0 0 1.885 3.264l9.7 5.6c1.171.564 2.1-.025 2.1-1.4a4.982 4.982 0 0 0-2.261-3.915c-.021-.012-.041-.021-.062-.032a6.956 6.956 0 0 0-.936-2.8 6.684 6.684 0 0 0-2.318-2.444z" class="cls-1" data-name="Path 18765"/>
                            </g>
                        </g>
                    </g>
                    <g id="Group_2322" data-name="Group 2322">
                        <g id="Group_2319" data-name="Group 2319">
                            <path id="Path_18766" d="M274.255 40.525l1.155-.671a1.074 1.074 0 0 1 .788-.092c.025-.017.049-.033.074-.048l-.011.005 1.155-.671a1.6 1.6 0 0 1 1.614.158 3.662 3.662 0 0 1 .629.467l.964-.56.012-.007a2.337 2.337 0 0 1 2.328.235 6.663 6.663 0 0 1 2.323 2.451 6.963 6.963 0 0 1 .937 2.8l.062.033a4.983 4.983 0 0 1 2.26 3.915 1.587 1.587 0 0 1-.663 1.455l-1.154.671.022-.016a1.5 1.5 0 0 1-1.462-.042l-9.7-5.6a4.156 4.156 0 0 1-1.884-3.264 1.325 1.325 0 0 1 .551-1.219z" class="cls-12" data-name="Path 18766"/>
                        </g>
                        <g id="Group_2321" data-name="Group 2321">
                            <g id="Group_2320" data-name="Group 2320">
                                <path id="Path_18767" d="M281.8 40.014a2.343 2.343 0 0 0-2.329-.235 1.762 1.762 0 0 0-.72.818 3.872 3.872 0 0 0-.885-.717c-1.1-.636-2.02-.266-2.23.808l-.045-.028c-1.043-.6-1.893-.119-1.9 1.081a4.151 4.151 0 0 0 1.884 3.264l9.7 5.6c1.171.564 2.1-.025 2.1-1.4a4.977 4.977 0 0 0-2.26-3.915l-.062-.033a6.947 6.947 0 0 0-.936-2.8 6.682 6.682 0 0 0-2.317-2.443z" class="cls-1" data-name="Path 18767"/>
                            </g>
                        </g>
                    </g>
                </g>
                <g id="Group_2396" data-name="Group 2396">
                    <g id="Group_2335" data-name="Group 2335">
                        <g id="Group_2324" data-name="Group 2324">
                            <path id="Path_18768" d="M130.76 99.134L127.5 97.4l-3.2 1.73 3.3 1.651z" class="cls-13" data-name="Path 18768"/>
                        </g>
                        <g id="Group_2334" data-name="Group 2334">
                            <g id="Group_2325" data-name="Group 2325">
                                <path id="Rectangle_113" d="M0 0h1.249v14.991H0z" class="cls-14" data-name="Rectangle 113" transform="translate(127.246 84.425)"/>
                            </g>
                            <g id="Group_2326" data-name="Group 2326">
                                <path id="Path_18769" d="M127.8 84.309s-3.936.628-5.817 3.214c-.002.001-.417-7.089 5.817-3.214z" class="cls-15" data-name="Path 18769"/>
                            </g>
                            <g id="Group_2327" data-name="Group 2327">
                                <path id="Path_18770" d="M127.715 84.166s-3.3-2.226-6.444-1.622c-.001 0 4.538-5.466 6.444 1.622z" class="cls-16" data-name="Path 18770"/>
                            </g>
                            <g id="Group_2328" data-name="Group 2328">
                                <path id="Path_18771" d="M127.616 84.2s-.761-3.911-3.41-5.7c0 0 7.076-.66 3.41 5.7z" class="cls-15" data-name="Path 18771"/>
                            </g>
                            <g id="Group_2329" data-name="Group 2329">
                                <path id="Path_18772" d="M127.664 84.448s3.139-2.454 6.313-2.074c0 0-4.913-5.134-6.313 2.074z" class="cls-15" data-name="Path 18772"/>
                            </g>
                            <g id="Group_2330" data-name="Group 2330">
                                <path id="Path_18773" d="M127.8 84.309s3.935.628 5.816 3.214c-.003.001.412-7.089-5.816-3.214z" class="cls-16" data-name="Path 18773"/>
                            </g>
                            <g id="Group_2331" data-name="Group 2331">
                                <path id="Path_18774" d="M127.182 84.167a.537.537 0 1 0 .537-.537.537.537 0 0 0-.537.537z" class="cls-17" data-name="Path 18774"/>
                            </g>
                            <g id="Group_2332" data-name="Group 2332">
                                <path id="Path_18775" d="M127.578 83.364a.537.537 0 1 0 .537-.537.538.538 0 0 0-.537.537z" class="cls-17" data-name="Path 18775"/>
                            </g>
                            <g id="Group_2333" data-name="Group 2333">
                                <path id="Path_18776" d="M126.776 83.364a.537.537 0 1 0 .537-.537.538.538 0 0 0-.537.537z" class="cls-17" data-name="Path 18776"/>
                            </g>
                        </g>
                    </g>
                    <g id="Group_2347" data-name="Group 2347">
                        <g id="Group_2336" data-name="Group 2336">
                            <path id="Path_18777" d="M141.691 93.2l-3.264-1.738-3.2 1.73 3.3 1.651z" class="cls-13" data-name="Path 18777"/>
                        </g>
                        <g id="Group_2346" data-name="Group 2346">
                            <g id="Group_2337" data-name="Group 2337">
                                <path id="Rectangle_114" d="M0 0h1.249v14.991H0z" class="cls-14" data-name="Rectangle 114" transform="translate(138.177 78.491)"/>
                            </g>
                            <g id="Group_2338" data-name="Group 2338">
                                <path id="Path_18778" d="M138.728 78.375s-3.936.628-5.817 3.214c.001.001-.411-7.089 5.817-3.214z" class="cls-15" data-name="Path 18778"/>
                            </g>
                            <g id="Group_2339" data-name="Group 2339">
                                <path id="Path_18779" d="M138.646 78.232s-3.3-2.226-6.444-1.622c-.002.001 4.538-5.466 6.444 1.622z" class="cls-15" data-name="Path 18779"/>
                            </g>
                            <g id="Group_2340" data-name="Group 2340">
                                <path id="Path_18780" d="M138.546 78.267s-.761-3.912-3.41-5.7c.001-.003 7.076-.661 3.41 5.7z" class="cls-16" data-name="Path 18780"/>
                            </g>
                            <g id="Group_2341" data-name="Group 2341">
                                <path id="Path_18781" d="M138.6 78.514s3.139-2.454 6.313-2.073c-.005-.001-4.918-5.135-6.313 2.073z" class="cls-15" data-name="Path 18781"/>
                            </g>
                            <g id="Group_2342" data-name="Group 2342">
                                <path id="Path_18782" d="M138.729 78.375s3.935.628 5.816 3.214c0 .001.415-7.089-5.816-3.214z" class="cls-15" data-name="Path 18782"/>
                            </g>
                            <g id="Group_2343" data-name="Group 2343">
                                <path id="Path_18783" d="M138.113 78.233a.537.537 0 1 0 .537-.537.537.537 0 0 0-.537.537z" class="cls-17" data-name="Path 18783"/>
                            </g>
                            <g id="Group_2344" data-name="Group 2344">
                                <path id="Path_18784" d="M138.51 77.43a.537.537 0 1 0 .537-.537.536.536 0 0 0-.536.536z" class="cls-17" data-name="Path 18784"/>
                            </g>
                            <g id="Group_2345" data-name="Group 2345">
                                <path id="Path_18785" d="M137.707 77.43a.537.537 0 1 0 .537-.537.538.538 0 0 0-.537.537z" class="cls-17" data-name="Path 18785"/>
                            </g>
                        </g>
                    </g>
                    <g id="Group_2359" data-name="Group 2359">
                        <g id="Group_2348" data-name="Group 2348">
                            <path id="Path_18786" d="M152.622 87.266l-3.264-1.738-3.2 1.73 3.3 1.651z" class="cls-13" data-name="Path 18786"/>
                        </g>
                        <g id="Group_2358" data-name="Group 2358">
                            <g id="Group_2349" data-name="Group 2349">
                                <path id="Rectangle_115" d="M0 0h1.249v14.991H0z" class="cls-14" data-name="Rectangle 115" transform="translate(149.108 72.557)"/>
                            </g>
                            <g id="Group_2350" data-name="Group 2350">
                                <path id="Path_18787" d="M149.659 72.441s-3.936.628-5.817 3.214c.001 0-.414-7.089 5.817-3.214z" class="cls-15" data-name="Path 18787"/>
                            </g>
                            <g id="Group_2351" data-name="Group 2351">
                                <path id="Path_18788" d="M149.577 72.3s-3.3-2.226-6.444-1.622c-.001-.001 4.538-5.468 6.444 1.622z" class="cls-15" data-name="Path 18788"/>
                            </g>
                            <g id="Group_2352" data-name="Group 2352">
                                <path id="Path_18789" d="M149.478 72.333s-.761-3.912-3.41-5.7c0-.003 7.076-.661 3.41 5.7z" class="cls-15" data-name="Path 18789"/>
                            </g>
                            <g id="Group_2353" data-name="Group 2353">
                                <path id="Path_18790" d="M149.526 72.58s3.138-2.454 6.313-2.074c0 0-4.913-5.134-6.313 2.074z" class="cls-15" data-name="Path 18790"/>
                            </g>
                            <g id="Group_2354" data-name="Group 2354">
                                <path id="Path_18791" d="M149.659 72.441s3.935.628 5.816 3.214c0 0 .415-7.089-5.816-3.214z" class="cls-16" data-name="Path 18791"/>
                            </g>
                            <g id="Group_2355" data-name="Group 2355">
                                <path id="Path_18792" d="M149.039 72.3a.537.537 0 1 0 .537-.537.537.537 0 0 0-.537.537z" class="cls-17" data-name="Path 18792"/>
                            </g>
                            <g id="Group_2356" data-name="Group 2356">
                                <path id="Path_18793" d="M149.441 71.5a.537.537 0 1 0 .537-.537.538.538 0 0 0-.537.537z" class="cls-17" data-name="Path 18793"/>
                            </g>
                            <g id="Group_2357" data-name="Group 2357">
                                <path id="Path_18794" d="M148.638 71.5a.537.537 0 1 0 .537-.537.538.538 0 0 0-.537.537z" class="cls-17" data-name="Path 18794"/>
                            </g>
                        </g>
                    </g>
                    <g id="Group_2371" data-name="Group 2371">
                        <g id="Group_2360" data-name="Group 2360">
                            <path id="Path_18795" d="M185.553 67.332l-3.264-1.738-3.2 1.73 3.3 1.651z" class="cls-13" data-name="Path 18795"/>
                        </g>
                        <g id="Group_2370" data-name="Group 2370">
                            <g id="Group_2361" data-name="Group 2361">
                                <path id="Rectangle_116" d="M0 0h1.249v14.991H0z" class="cls-14" data-name="Rectangle 116" transform="translate(182.039 52.623)"/>
                            </g>
                            <g id="Group_2362" data-name="Group 2362">
                                <path id="Path_18796" d="M182.59 52.507s-3.936.628-5.817 3.214c.001 0-.414-7.089 5.817-3.214z" class="cls-15" data-name="Path 18796"/>
                            </g>
                            <g id="Group_2363" data-name="Group 2363">
                                <path id="Path_18797" d="M182.508 52.364s-3.3-2.226-6.444-1.622c-.001.001 4.536-5.466 6.444 1.622z" class="cls-16" data-name="Path 18797"/>
                            </g>
                            <g id="Group_2364" data-name="Group 2364">
                                <path id="Path_18798" d="M182.409 52.4s-.761-3.912-3.41-5.7c.001 0 7.075-.662 3.41 5.7z" class="cls-15" data-name="Path 18798"/>
                            </g>
                            <g id="Group_2365" data-name="Group 2365">
                                <path id="Path_18799" d="M182.457 52.647s3.139-2.455 6.313-2.074c-.558-.582-5.188-3.721-6.313 2.074z" class="cls-16" data-name="Path 18799"/>
                            </g>
                            <g id="Group_2366" data-name="Group 2366">
                                <path id="Path_18800" d="M182.59 52.507s3.935.628 5.816 3.214c0 0 .415-7.089-5.816-3.214z" class="cls-15" data-name="Path 18800"/>
                            </g>
                            <g id="Group_2367" data-name="Group 2367">
                                <path id="Path_18801" d="M181.975 52.365a.537.537 0 1 0 .537-.537.537.537 0 0 0-.537.537z" class="cls-17" data-name="Path 18801"/>
                            </g>
                            <g id="Group_2368" data-name="Group 2368">
                                <path id="Path_18802" d="M182.372 51.562a.537.537 0 1 0 .537-.537.538.538 0 0 0-.537.537z" class="cls-17" data-name="Path 18802"/>
                            </g>
                            <g id="Group_2369" data-name="Group 2369">
                                <path id="Path_18803" d="M181.569 51.562a.537.537 0 1 0 .537-.537.538.538 0 0 0-.537.537z" class="cls-17" data-name="Path 18803"/>
                            </g>
                        </g>
                    </g>
                    <g id="Group_2383" data-name="Group 2383">
                        <g id="Group_2372" data-name="Group 2372">
                            <path id="Path_18804" d="M196.484 61.4l-3.264-1.74-3.2 1.73 3.3 1.651z" class="cls-13" data-name="Path 18804"/>
                        </g>
                        <g id="Group_2382" data-name="Group 2382">
                            <g id="Group_2373" data-name="Group 2373">
                                <path id="Rectangle_117" d="M0 0h1.249v14.991H0z" class="cls-14" data-name="Rectangle 117" transform="translate(192.97 46.689)"/>
                            </g>
                            <g id="Group_2374" data-name="Group 2374">
                                <path id="Path_18805" d="M193.521 46.573s-3.936.628-5.817 3.214c.001 0-.414-7.087 5.817-3.214z" class="cls-15" data-name="Path 18805"/>
                            </g>
                            <g id="Group_2375" data-name="Group 2375">
                                <path id="Path_18806" d="M193.439 46.43s-3.3-2.226-6.444-1.622c-.001.001 4.538-5.466 6.444 1.622z" class="cls-15" data-name="Path 18806"/>
                            </g>
                            <g id="Group_2376" data-name="Group 2376">
                                <path id="Path_18807" d="M193.339 46.465s-.761-3.912-3.41-5.7c.001-.003 7.076-.665 3.41 5.7z" class="cls-16" data-name="Path 18807"/>
                            </g>
                            <g id="Group_2377" data-name="Group 2377">
                                <path id="Path_18808" d="M193.388 46.712s3.138-2.454 6.313-2.074c-.001 0-4.913-5.138-6.313 2.074z" class="cls-15" data-name="Path 18808"/>
                            </g>
                            <g id="Group_2378" data-name="Group 2378">
                                <path id="Path_18809" d="M193.209 46.886s3.935.628 5.816 3.214c0 0 .415-7.089-5.816-3.214z" class="cls-16" data-name="Path 18809"/>
                            </g>
                            <g id="Group_2379" data-name="Group 2379">
                                <path id="Path_18810" d="M192.9 46.431a.537.537 0 1 0 .537-.537.537.537 0 0 0-.537.537z" class="cls-17" data-name="Path 18810"/>
                            </g>
                            <g id="Group_2380" data-name="Group 2380">
                                <path id="Path_18811" d="M193.3 45.628a.537.537 0 1 0 .537-.537.538.538 0 0 0-.537.537z" class="cls-17" data-name="Path 18811"/>
                            </g>
                            <g id="Group_2381" data-name="Group 2381">
                                <path id="Path_18812" d="M192.5 45.628a.537.537 0 1 0 .537-.537.538.538 0 0 0-.537.537z" class="cls-17" data-name="Path 18812"/>
                            </g>
                        </g>
                    </g>
                    <g id="Group_2395" data-name="Group 2395">
                        <g id="Group_2384" data-name="Group 2384">
                            <path id="Path_18813" d="M207.416 55.462l-3.264-1.738-3.2 1.73 3.3 1.651z" class="cls-13" data-name="Path 18813"/>
                        </g>
                        <g id="Group_2394" data-name="Group 2394">
                            <g id="Group_2385" data-name="Group 2385">
                                <path id="Rectangle_118" d="M0 0h1.249v14.991H0z" class="cls-14" data-name="Rectangle 118" transform="translate(203.902 40.755)"/>
                            </g>
                            <g id="Group_2386" data-name="Group 2386">
                                <path id="Path_18814" d="M204.453 40.639s-3.936.628-5.817 3.214c.001 0-.414-7.089 5.817-3.214z" class="cls-15" data-name="Path 18814"/>
                            </g>
                            <g id="Group_2387" data-name="Group 2387">
                                <path id="Path_18815" d="M204.371 40.5s-3.3-2.226-6.444-1.622c-.001-.003 4.538-5.47 6.444 1.622z" class="cls-15" data-name="Path 18815"/>
                            </g>
                            <g id="Group_2388" data-name="Group 2388">
                                <path id="Path_18816" d="M203.96 40.843s-.761-3.912-3.41-5.7c0-.003 7.076-.661 3.41 5.7z" class="cls-16" data-name="Path 18816"/>
                            </g>
                            <g id="Group_2389" data-name="Group 2389">
                                <path id="Path_18817" d="M204.32 40.778s3.139-2.454 6.313-2.074c0-.004-4.913-5.134-6.313 2.074z" class="cls-15" data-name="Path 18817"/>
                            </g>
                            <g id="Group_2390" data-name="Group 2390">
                                <path id="Path_18818" d="M204.453 40.639s3.935.628 5.816 3.214c0 0 .415-7.089-5.816-3.214z" class="cls-15" data-name="Path 18818"/>
                            </g>
                            <g id="Group_2391" data-name="Group 2391">
                                <path id="Path_18819" d="M203.833 40.5a.537.537 0 1 0 .537-.537.537.537 0 0 0-.537.537z" class="cls-17" data-name="Path 18819"/>
                            </g>
                            <g id="Group_2392" data-name="Group 2392">
                                <path id="Path_18820" d="M204.234 39.694a.537.537 0 1 0 .537-.537.538.538 0 0 0-.537.537z" class="cls-17" data-name="Path 18820"/>
                            </g>
                            <g id="Group_2393" data-name="Group 2393">
                                <path id="Path_18821" d="M203.432 39.694a.537.537 0 1 0 .537-.537.539.539 0 0 0-.537.537z" class="cls-17" data-name="Path 18821"/>
                            </g>
                        </g>
                    </g>
                </g>
                <g id="Group_2411" data-name="Group 2411">
                    <g id="Group_2406" data-name="Group 2406">
                        <path id="Path_18826" d="M279.133 108.106l-.76-.439-1.018-.588-.6-.348-1.017-.587-.6-.348-1.018-.588-.6-.347-1.018-.588-.76-.439-13.273 7.713 2.38 1.374.721.416 2.519 1.454.346.2 1.432.827z" class="cls-1" data-name="Path 18826"/>
                    </g>
                    <g id="Group_2410" data-name="Group 2410">
                        <g id="Group_2409" data-name="Group 2409">
                            <g id="Group_2408" data-name="Group 2408">
                                <g id="Group_2407" data-name="Group 2407">
                                    <path id="Path_18827" d="M279.133 108.106l-13.273 7.714-7.4-4.271 13.273-7.713.76.439-13.273 7.713 1.017.588 13.273-7.713.6.347-13.273 7.714 1.018.588 13.273-7.713.6.348-13.273 7.713 1.018.587 13.273-7.713.6.348-13.273 7.713 1.017.587 13.273-7.713z" class="cls-18" data-name="Path 18827"/>
                                </g>
                            </g>
                        </g>
                    </g>
                </g>
                <g id="Group_2425" data-name="Group 2425">
                    <g id="Group_2412" class="cls-19" data-name="Group 2412">
                        <path id="Path_18828" d="M226.575 93.281c0 1.079 2.209 1.954 4.933 1.954s4.933-.875 4.933-1.954-2.209-1.954-4.933-1.954-4.933.873-4.933 1.954z" class="cls-6" data-name="Path 18828"/>
                    </g>
                    <g id="Group_2424" data-name="Group 2424">
                        <g id="Group_2417" data-name="Group 2417">
                            <g id="Group_2416" data-name="Group 2416">
                                <g id="Group_2413" data-name="Group 2413">
                                    <path id="Path_18829" d="M231.977 87.7a.094.094 0 0 1-.005.03.111.111 0 0 1-.014.029.139.139 0 0 1-.023.026l-.02.015-.018.013a.365.365 0 0 1-.057.025l-.022.007-.029.006-.036.007h-.12l-.047-.008h-.008l-.041-.012a.4.4 0 0 1-.047-.022.217.217 0 0 1-.065-.056.123.123 0 0 1-.022-.064l-.014 7.873a.148.148 0 0 0 .086.12.389.389 0 0 0 .042.019h.007l.026.009h.225l.029-.006h.016a.351.351 0 0 0 .059-.026l.016-.011.02-.015.019-.02v-.008l.009-.016v-.034z" class="cls-20" data-name="Path 18829"/>
                                </g>
                                <g id="Group_2415" data-name="Group 2415">
                                    <g id="Group_2414" data-name="Group 2414">
                                        <path id="Path_18830" d="M231.891 87.58a.127.127 0 0 1 .08.16.126.126 0 0 1-.08.079.453.453 0 0 1-.412 0 .125.125 0 0 1-.077-.16.127.127 0 0 1 .077-.078.456.456 0 0 1 .412-.001z" class="cls-21" data-name="Path 18830"/>
                                    </g>
                                </g>
                            </g>
                        </g>
                        <g id="Group_2423" data-name="Group 2423">
                            <g id="Group_2419" data-name="Group 2419">
                                <g id="Group_2418" data-name="Group 2418">
                                    <path id="Path_18831" d="M236.441 86.017l.013 2.289-2.785 1.619h-3.952l-2.8-1.618-.012-2.289 2.785-1.618 1.991-.375 1.96.375z" class="cls-4" data-name="Path 18831"/>
                                </g>
                            </g>
                            <g id="Group_2420" data-name="Group 2420">
                                <path id="Path_18832" d="M231.679 84.024l-4.779 1.994.011 2.289z" class="cls-22" data-name="Path 18832"/>
                            </g>
                            <g id="Group_2421" data-name="Group 2421">
                                <path id="Path_18833" d="M229.717 89.925l1.961-5.9 1.991 5.9z" class="cls-18" data-name="Path 18833"/>
                            </g>
                            <g id="Group_2422" data-name="Group 2422">
                                <path id="Path_18834" d="M236.454 88.307l-4.776-4.282 4.763 1.993z" class="cls-18" data-name="Path 18834"/>
                            </g>
                        </g>
                    </g>
                </g>
                <g id="Group_2439" data-name="Group 2439">
                    <g id="Group_2426" class="cls-19" data-name="Group 2426">
                        <path id="Path_18835" d="M214.394 86.1c0 1.079 2.208 1.954 4.933 1.954s4.933-.875 4.933-1.954-2.209-1.953-4.933-1.953-4.933.871-4.933 1.953z" class="cls-6" data-name="Path 18835"/>
                    </g>
                    <g id="Group_2438" data-name="Group 2438">
                        <g id="Group_2431" data-name="Group 2431">
                            <g id="Group_2430" data-name="Group 2430">
                                <g id="Group_2427" data-name="Group 2427">
                                    <path id="Path_18836" d="M219.891 80.645a.076.076 0 0 1 0 .03.111.111 0 0 1-.014.029.139.139 0 0 1-.023.026l-.02.015-.017.013a.422.422 0 0 1-.058.025l-.021.007-.03.006-.036.007h-.12l-.047-.008h-.005l-.04-.012-.046-.022a.218.218 0 0 1-.065-.056.125.125 0 0 1-.021-.064l-.015 7.873a.148.148 0 0 0 .086.12.389.389 0 0 0 .042.019h.007l.027.009h.031l.029.006h.166l.029-.007h.016a.442.442 0 0 0 .059-.026l.015-.011.02-.014.019-.02v-.008l.008-.017v-.042z" class="cls-20" data-name="Path 18836"/>
                                </g>
                                <g id="Group_2429" data-name="Group 2429">
                                    <g id="Group_2428" data-name="Group 2428">
                                        <path id="Path_18837" d="M219.8 80.522a.126.126 0 0 1 .08.16.124.124 0 0 1-.08.079.451.451 0 0 1-.411 0 .125.125 0 0 1-.078-.16.128.128 0 0 1 .078-.078.454.454 0 0 1 .411-.001z" class="cls-21" data-name="Path 18837"/>
                                    </g>
                                </g>
                            </g>
                        </g>
                        <g id="Group_2437" data-name="Group 2437">
                            <g id="Group_2433" data-name="Group 2433">
                                <g id="Group_2432" data-name="Group 2432">
                                    <path id="Path_18838" d="M224.355 78.962l.013 2.289-2.785 1.619h-3.952l-2.8-1.619-.012-2.289 2.785-1.618 1.991-.375 1.96.375z" class="cls-4" data-name="Path 18838"/>
                                </g>
                            </g>
                            <g id="Group_2434" data-name="Group 2434">
                                <path id="Path_18839" d="M219.592 76.969l-4.776 1.994.012 2.289z" class="cls-18" data-name="Path 18839"/>
                            </g>
                            <g id="Group_2435" data-name="Group 2435">
                                <path id="Path_18840" d="M217.635 82.87l1.961-5.9 1.992 5.9z" class="cls-18" data-name="Path 18840"/>
                            </g>
                            <g id="Group_2436" data-name="Group 2436">
                                <path id="Path_18841" d="M224.367 81.251l-4.776-4.282 4.763 1.993z" class="cls-22" data-name="Path 18841"/>
                            </g>
                        </g>
                    </g>
                </g>
                <g id="Group_2453" data-name="Group 2453">
                    <g id="Group_2440" class="cls-19" data-name="Group 2440">
                        <path id="Path_18842" d="M202.526 79.852c0 1.079 2.209 1.954 4.933 1.954s4.933-.875 4.933-1.954-2.209-1.954-4.933-1.954-4.933.875-4.933 1.954z" class="cls-6" data-name="Path 18842"/>
                    </g>
                    <g id="Group_2452" data-name="Group 2452">
                        <g id="Group_2445" data-name="Group 2445">
                            <g id="Group_2444" data-name="Group 2444">
                                <g id="Group_2441" data-name="Group 2441">
                                    <path id="Path_18843" d="M208.272 75.033a.076.076 0 0 1 0 .03.092.092 0 0 1-.014.028.1.1 0 0 1-.023.026l-.02.015-.018.013a.241.241 0 0 1-.057.025l-.022.007-.029.007-.036.006h-.12l-.047-.008h-.008l-.04-.013h-.005a.277.277 0 0 1-.046-.022.193.193 0 0 1-.065-.056.117.117 0 0 1-.022-.064l-.015 7.873a.146.146 0 0 0 .086.12.266.266 0 0 0 .042.02h.007l.027.008h.224l.029-.007h.016a.241.241 0 0 0 .059-.026l.015-.015.019-.015.019-.02v-.005l.005-.008.009-.017v-.025z" class="cls-20" data-name="Path 18843"/>
                                </g>
                                <g id="Group_2443" data-name="Group 2443">
                                    <g id="Group_2442" data-name="Group 2442">
                                        <path id="Path_18844" d="M208.187 74.913a.127.127 0 0 1 .079.162.125.125 0 0 1-.079.078.447.447 0 0 1-.412 0 .126.126 0 0 1 0-.239.456.456 0 0 1 .412-.001z" class="cls-21" data-name="Path 18844"/>
                                    </g>
                                </g>
                            </g>
                        </g>
                        <g id="Group_2451" data-name="Group 2451">
                            <g id="Group_2447" data-name="Group 2447">
                                <g id="Group_2446" data-name="Group 2446">
                                    <path id="Path_18845" d="M212.74 73.352l.013 2.289-2.785 1.619h-3.953l-2.8-1.619-.012-2.289 2.785-1.619 1.991-.375 1.96.375z" class="cls-4" data-name="Path 18845"/>
                                </g>
                            </g>
                            <g id="Group_2448" data-name="Group 2448">
                                <path id="Path_18846" d="M207.977 71.358l-4.777 1.994.012 2.289z" class="cls-18" data-name="Path 18846"/>
                            </g>
                            <g id="Group_2449" data-name="Group 2449">
                                <path id="Path_18847" d="M206.016 77.259l1.961-5.9 1.992 5.9z" class="cls-22" data-name="Path 18847"/>
                            </g>
                            <g id="Group_2450" data-name="Group 2450">
                                <path id="Path_18848" d="M212.753 75.641l-4.776-4.282 4.763 1.993z" class="cls-18" data-name="Path 18848"/>
                            </g>
                        </g>
                    </g>
                </g>
                <g id="Group_2473" data-name="Group 2473">
                    <g id="Group_2459" data-name="Group 2459">
                        <g id="Group_2454" data-name="Group 2454">
                            <path id="Path_18849" d="M137.641 100.156l.76-.439 1.018-.588.6-.348 1.018-.587.6-.348 1.018-.588.6-.347 1.018-.588.76-.439 13.273 7.713-2.38 1.374-.721.416-2.519 1.454-.346.2-1.432.827z" class="cls-1" data-name="Path 18849"/>
                        </g>
                        <g id="Group_2458" data-name="Group 2458">
                            <g id="Group_2457" data-name="Group 2457">
                                <g id="Group_2456" data-name="Group 2456">
                                    <g id="Group_2455" data-name="Group 2455">
                                        <path id="Path_18850" d="M137.641 100.156l13.273 7.714 7.4-4.271-13.273-7.713-.76.439 13.273 7.713-1.018.588-13.273-7.713-.6.347 13.272 7.714-1.017.587-13.273-7.713-.6.348 13.273 7.713-1.018.587-13.273-7.713-.6.348 13.273 7.713-1.017.587-13.273-7.713z" class="cls-18" data-name="Path 18850"/>
                                    </g>
                                </g>
                            </g>
                        </g>
                    </g>
                    <g id="Group_2460" class="cls-19" data-name="Group 2460">
                        <ellipse id="Ellipse_22" cx="6.259" cy="2.479" class="cls-6" data-name="Ellipse 22" rx="6.259" ry="2.479" transform="translate(146.299 103.228)"/>
                    </g>
                    <g id="Group_2472" data-name="Group 2472">
                        <g id="Group_2465" data-name="Group 2465">
                            <g id="Group_2464" data-name="Group 2464">
                                <g id="Group_2461" data-name="Group 2461">
                                    <path id="Path_18851" d="M153.831 101.3a.073.073 0 0 1 0 .03.1.1 0 0 1-.014.029.1.1 0 0 1-.023.026l-.02.016-.017.013a.323.323 0 0 1-.058.024l-.022.007-.03.008-.037.006h-.067a.2.2 0 0 1-.049 0h-.008a.272.272 0 0 1-.047-.008h-.008l-.041-.013a.292.292 0 0 1-.047-.023.189.189 0 0 1-.066-.057.112.112 0 0 1-.021-.065l-.015 8a.148.148 0 0 0 .087.122.19.19 0 0 0 .043.021h.007l.027.009h.031l.03.005h.169l.029-.006h.016a.413.413 0 0 0 .061-.026l.015-.011.02-.015.019-.02v-.01l.005-.008.009-.017v-.034z" class="cls-20" data-name="Path 18851"/>
                                </g>
                                <g id="Group_2463" data-name="Group 2463">
                                    <g id="Group_2462" data-name="Group 2462">
                                        <path id="Path_18852" d="M153.743 101.181a.13.13 0 0 1 .079.165.127.127 0 0 1-.079.078.462.462 0 0 1-.419 0 .128.128 0 0 1-.079-.162.131.131 0 0 1 .079-.08.465.465 0 0 1 .419-.001z" class="cls-21" data-name="Path 18852"/>
                                    </g>
                                </g>
                            </g>
                        </g>
                        <g id="Group_2471" data-name="Group 2471">
                            <g id="Group_2467" data-name="Group 2467">
                                <g id="Group_2466" data-name="Group 2466">
                                    <path id="Path_18853" d="M158.365 99.6l.013 2.325-2.829 1.645h-4.015l-2.848-1.645-.012-2.325 2.829-1.644 2.022-.381 1.991.381z" class="cls-4" data-name="Path 18853"/>
                                </g>
                            </g>
                            <g id="Group_2468" data-name="Group 2468">
                                <path id="Path_18854" d="M153.527 97.568l-4.852 2.025.012 2.325z" class="cls-18" data-name="Path 18854"/>
                            </g>
                            <g id="Group_2469" data-name="Group 2469">
                                <path id="Path_18855" d="M151.535 103.568l1.992-5.994 2.023 5.994z" class="cls-22" data-name="Path 18855"/>
                            </g>
                            <g id="Group_2470" data-name="Group 2470">
                                <path id="Path_18856" d="M158.379 101.92l-4.85-4.35 4.839 2.025z" class="cls-18" data-name="Path 18856"/>
                            </g>
                        </g>
                    </g>
                </g>
                <g id="Group_2603" data-name="Group 2603">
                    <g id="Group_2573" data-name="Group 2573">
                        <g id="Group_2554" data-name="Group 2554">
                            <g id="Group_2551" data-name="Group 2551">
                                <path id="Path_18880" d="M243.127 70.814l-13.43 8v-48.4l13.43-8z" class="cls-23" data-name="Path 18880"/>
                            </g>
                            <g id="Group_2552" data-name="Group 2552">
                                <path id="Path_18881" d="M215.955 70.814l13.742 8v-48.4l-13.742-8z" class="cls-23" data-name="Path 18881"/>
                            </g>
                            <g id="Group_2553" data-name="Group 2553">
                                <path id="Path_18882" d="M229.441 30.412l-13.6-8 13.6-7.88 13.6 7.88z" class="cls-24" data-name="Path 18882"/>
                            </g>
                        </g>
                        <g id="Group_2558" data-name="Group 2558">
                            <g id="Group_2555" data-name="Group 2555">
                                <path id="Path_18883" d="M255.62 78.016l-13.741 8v-48.4l13.741-8z" class="cls-10" data-name="Path 18883"/>
                            </g>
                            <g id="Group_2556" data-name="Group 2556">
                                <path id="Path_18884" d="M228.448 78.016l13.43 8v-48.4l-13.43-8z" class="cls-23" data-name="Path 18884"/>
                            </g>
                            <g id="Group_2557" data-name="Group 2557">
                                <path id="Path_18885" d="M241.839 37.611l-13.639-7.94 13.636-7.94 13.6 7.88z" class="cls-24" data-name="Path 18885"/>
                            </g>
                        </g>
                        <g id="Group_2559" data-name="Group 2559">
                            <path id="Path_18886" d="M241.712 43.01v2.8l-26.017-15v-2.8z" class="cls-3" data-name="Path 18886"/>
                        </g>
                        <g id="Group_2560" data-name="Group 2560">
                            <path id="Path_18887" d="M241.712 48.608v2.8l-26.017-15v-2.8z" class="cls-3" data-name="Path 18887"/>
                        </g>
                        <g id="Group_2561" data-name="Group 2561">
                            <path id="Path_18888" d="M241.712 54.212v2.8l-26.017-15v-2.8z" class="cls-3" data-name="Path 18888"/>
                        </g>
                        <g id="Group_2562" data-name="Group 2562">
                            <path id="Path_18889" d="M241.712 59.811v2.8l-26.017-15v-2.8z" class="cls-3" data-name="Path 18889"/>
                        </g>
                        <g id="Group_2563" data-name="Group 2563">
                            <path id="Path_18890" d="M241.712 65.415v2.8l-26.017-15v-2.8z" class="cls-3" data-name="Path 18890"/>
                        </g>
                        <g id="Group_2564" data-name="Group 2564">
                            <path id="Path_18891" d="M241.712 71.012v2.8l-26.017-15v-2.8z" class="cls-3" data-name="Path 18891"/>
                        </g>
                        <g id="Group_2565" data-name="Group 2565">
                            <path id="Path_18892" d="M241.712 76.612v2.8l-26.017-15v-2.8z" class="cls-3" data-name="Path 18892"/>
                        </g>
                        <g id="Group_2566" data-name="Group 2566">
                            <path id="Path_18893" d="M255.742 34.922v2.8l-14.03 8.088v-2.8z" class="cls-3" data-name="Path 18893"/>
                        </g>
                        <g id="Group_2567" data-name="Group 2567">
                            <path id="Path_18894" d="M255.742 40.522v2.8l-14.03 8.088v-2.8z" class="cls-3" data-name="Path 18894"/>
                        </g>
                        <g id="Group_2568" data-name="Group 2568">
                            <path id="Path_18895" d="M255.742 46.123v2.8l-14.03 8.088v-2.8z" class="cls-3" data-name="Path 18895"/>
                        </g>
                        <g id="Group_2569" data-name="Group 2569">
                            <path id="Path_18896" d="M255.742 51.723v2.8l-14.03 8.088v-2.8z" class="cls-3" data-name="Path 18896"/>
                        </g>
                        <g id="Group_2570" data-name="Group 2570">
                            <path id="Path_18897" d="M255.742 57.323v2.8l-14.03 8.088v-2.8z" class="cls-3" data-name="Path 18897"/>
                        </g>
                        <g id="Group_2571" data-name="Group 2571">
                            <path id="Path_18898" d="M255.742 62.924v2.8l-14.03 8.088v-2.8z" class="cls-3" data-name="Path 18898"/>
                        </g>
                        <g id="Group_2572" data-name="Group 2572">
                            <path id="Path_18899" d="M255.742 68.524v2.8l-14.03 8.088v-2.8z" class="cls-3" data-name="Path 18899"/>
                        </g>
                    </g>
                    <g id="Group_2602" data-name="Group 2602">
                        <g id="Group_2577" data-name="Group 2577">
                            <g id="Group_2574" data-name="Group 2574">
                                <path id="Path_18900" d="M259.155 85.385l1.682-.972v-1.9l-1.682.972z" class="cls-25" data-name="Path 18900"/>
                            </g>
                            <g id="Group_2575" data-name="Group 2575">
                                <path id="Path_18901" d="M257.477 84.413l1.682.972v-1.9l-1.682-.974z" class="cls-26" data-name="Path 18901"/>
                            </g>
                            <g id="Group_2576" data-name="Group 2576">
                                <path id="Path_18902" d="M257.473 82.511l1.665-.974 1.7.973-1.682.973z" class="cls-27" data-name="Path 18902"/>
                            </g>
                        </g>
                        <g id="Group_2581" data-name="Group 2581">
                            <g id="Group_2578" data-name="Group 2578">
                                <path id="Path_18903" d="M256.287 87.309l1.682-.972v-1.9l-1.682.972z" class="cls-25" data-name="Path 18903"/>
                            </g>
                            <g id="Group_2579" data-name="Group 2579">
                                <path id="Path_18904" d="M254.6 86.338l1.682.971v-1.9l-1.682-.974z" class="cls-26" data-name="Path 18904"/>
                            </g>
                            <g id="Group_2580" data-name="Group 2580">
                                <path id="Path_18905" d="M254.6 84.435l1.665-.974 1.7.973-1.682.973z" class="cls-27" data-name="Path 18905"/>
                            </g>
                        </g>
                        <g id="Group_2585" data-name="Group 2585">
                            <g id="Group_2582" data-name="Group 2582">
                                <path id="Path_18906" d="M252.922 89.453l1.682-.971v-1.9l-1.682.973z" class="cls-25" data-name="Path 18906"/>
                            </g>
                            <g id="Group_2583" data-name="Group 2583">
                                <path id="Path_18907" d="M251.239 88.481l1.682.971v-1.9l-1.682-.974z" class="cls-26" data-name="Path 18907"/>
                            </g>
                            <g id="Group_2584" data-name="Group 2584">
                                <path id="Path_18908" d="M251.239 86.58l1.665-.974 1.7.973-1.682.973z" class="cls-27" data-name="Path 18908"/>
                            </g>
                        </g>
                        <g id="Group_2589" data-name="Group 2589">
                            <g id="Group_2586" data-name="Group 2586">
                                <path id="Path_18909" d="M249.556 91.6l1.682-.972v-1.9l-1.682.972z" class="cls-25" data-name="Path 18909"/>
                            </g>
                            <g id="Group_2587" data-name="Group 2587">
                                <path id="Path_18910" d="M247.874 90.627l1.682.972V89.7l-1.682-.974z" class="cls-26" data-name="Path 18910"/>
                            </g>
                            <g id="Group_2588" data-name="Group 2588">
                                <path id="Path_18911" d="M247.874 88.725l1.665-.974 1.7.973-1.682.973z" class="cls-27" data-name="Path 18911"/>
                            </g>
                        </g>
                        <g id="Group_2593" data-name="Group 2593">
                            <g id="Group_2590" data-name="Group 2590">
                                <path id="Path_18912" d="M246.192 93.845l1.682-.972v-1.9l-1.682.972z" class="cls-25" data-name="Path 18912"/>
                            </g>
                            <g id="Group_2591" data-name="Group 2591">
                                <path id="Path_18913" d="M244.508 92.873l1.682.971v-1.9l-1.682-.974z" class="cls-26" data-name="Path 18913"/>
                            </g>
                            <g id="Group_2592" data-name="Group 2592">
                                <path id="Path_18914" d="M244.51 90.971l1.665-.971 1.7.973-1.682.973z" class="cls-27" data-name="Path 18914"/>
                            </g>
                        </g>
                        <g id="Group_2597" data-name="Group 2597">
                            <g id="Group_2594" data-name="Group 2594">
                                <path id="Path_18915" d="M209.536 66.689l1.682-.972v-1.9l-1.682.972z" class="cls-25" data-name="Path 18915"/>
                            </g>
                            <g id="Group_2595" data-name="Group 2595">
                                <path id="Path_18916" d="M207.854 65.718l1.682.971v-1.9l-1.682-.974z" class="cls-26" data-name="Path 18916"/>
                            </g>
                            <g id="Group_2596" data-name="Group 2596">
                                <path id="Path_18917" d="M207.854 63.815l1.665-.974 1.7.973-1.682.973z" class="cls-27" data-name="Path 18917"/>
                            </g>
                        </g>
                        <g id="Group_2601" data-name="Group 2601">
                            <g id="Group_2598" data-name="Group 2598">
                                <path id="Path_18918" d="M206.172 68.834l1.682-.972v-1.9l-1.682.972z" class="cls-25" data-name="Path 18918"/>
                            </g>
                            <g id="Group_2599" data-name="Group 2599">
                                <path id="Path_18919" d="M204.49 67.863l1.682.971v-1.9l-1.682-.974z" class="cls-26" data-name="Path 18919"/>
                            </g>
                            <g id="Group_2600" data-name="Group 2600">
                                <path id="Path_18920" d="M204.49 65.96l1.665-.974 1.7.973-1.682.973z" class="cls-27" data-name="Path 18920"/>
                            </g>
                        </g>
                    </g>
                </g>
                <g id="Group_2632" data-name="Group 2632">
                    <g id="Group_2606" data-name="Group 2606">
                        <g id="Group_2604" data-name="Group 2604">
                            <path id="Path_18921" d="M156.03 34.582c-1.032-3.13-2.1-6.158-2.744-6.56a1.3 1.3 0 0 0-1.628.854 1.379 1.379 0 0 0-.052.246c-.348 1.873-2.852 8.385-2.852 8.385z" class="cls-28" data-name="Path 18921"/>
                        </g>
                        <g id="Group_2605" data-name="Group 2605">
                            <path id="Path_18922" d="M154.826 35.07l1.206-.485c-.572-1.732-1.152-3.433-1.667-4.673a7.208 7.208 0 0 0 .033 3.039 12.171 12.171 0 0 1 .428 2.119z" class="cls-1" data-name="Path 18922"/>
                        </g>
                    </g>
                    <g id="Group_2607" data-name="Group 2607">
                        <path id="Path_18923" d="M183.147 28.822s-5.484 5.625-8.2 6.908-24.241 10.089-27.559 11.265-6.119.877-6.355-.8 2.307-5.313 4.46-7.093 8.3-4.034 12.935-5.6 18.43-6.3 21.563-7.009 3.8-.171 4.155.444-.999 1.885-.999 1.885z" class="cls-1" data-name="Path 18923"/>
                    </g>
                    <g id="Group_2608" data-name="Group 2608">
                        <path id="Path_18924" d="M160.4 34.77a17.919 17.919 0 0 1-4.787-.285l.177-.061c3.322-1.132 10.6-3.64 16.673-5.638A17.78 17.78 0 0 1 160.4 34.77z" class="cls-28" data-name="Path 18924"/>
                    </g>
                    <g id="Group_2609" data-name="Group 2609">
                        <path id="Path_18925" d="M143.281 41.358l-.462.7a4.614 4.614 0 0 0 3.915.43l-.426-.98a4.157 4.157 0 0 1-3.027-.15z" class="cls-29" data-name="Path 18925"/>
                    </g>
                    <g id="Group_2622" data-name="Group 2622">
                        <g id="Group_2615" data-name="Group 2615">
                            <g id="Group_2610" data-name="Group 2610">
                                <path id="Path_18926" d="M149.349 42.265l-.783.31-.645-1.126.782-.311z" class="cls-29" data-name="Path 18926"/>
                            </g>
                            <g id="Group_2611" data-name="Group 2611">
                                <path id="Path_18927" d="M150.795 41.693l-.782.309-.646-1.127.782-.31z" class="cls-29" data-name="Path 18927"/>
                            </g>
                            <g id="Group_2612" data-name="Group 2612">
                                <path id="Path_18928" d="M152.243 41.118l-.783.31-.646-1.127.783-.31z" class="cls-29" data-name="Path 18928"/>
                            </g>
                            <g id="Group_2613" data-name="Group 2613">
                                <path id="Path_18929" d="M153.69 40.543l-.782.311-.646-1.127.783-.309z" class="cls-29" data-name="Path 18929"/>
                            </g>
                            <g id="Group_2614" data-name="Group 2614">
                                <path id="Path_18930" d="M155.139 39.969l-.782.311-.646-1.127.782-.31z" class="cls-29" data-name="Path 18930"/>
                            </g>
                        </g>
                        <g id="Group_2621" data-name="Group 2621">
                            <g id="Group_2616" data-name="Group 2616">
                                <path id="Path_18931" d="M157.688 38.934l-.783.311-.646-1.127.782-.309z" class="cls-29" data-name="Path 18931"/>
                            </g>
                            <g id="Group_2617" data-name="Group 2617">
                                <path id="Path_18932" d="M159.136 38.361l-.782.311-.646-1.127.783-.31z" class="cls-29" data-name="Path 18932"/>
                            </g>
                            <g id="Group_2618" data-name="Group 2618">
                                <path id="Path_18933" d="M160.583 37.787l-.783.311-.646-1.127.783-.309z" class="cls-29" data-name="Path 18933"/>
                            </g>
                            <g id="Group_2619" data-name="Group 2619">
                                <path id="Path_18934" d="M162.032 37.213l-.782.31-.65-1.123.782-.31z" class="cls-29" data-name="Path 18934"/>
                            </g>
                            <g id="Group_2620" data-name="Group 2620">
                                <path id="Path_18935" d="M163.48 36.639l-.782.31-.646-1.126.783-.31z" class="cls-29" data-name="Path 18935"/>
                            </g>
                        </g>
                    </g>
                    <g id="Group_2628" data-name="Group 2628">
                        <g id="Group_2623" data-name="Group 2623">
                            <path id="Path_18936" d="M174.342 28.9s5.832-9.973 6.28-10.541.693-1.017 1.443-1.211 2.47-.659 2.47-.659l-2.56 10.986s-8.041 2.874-7.633 1.425z" class="cls-28" data-name="Path 18936"/>
                        </g>
                        <g id="Group_2624" data-name="Group 2624">
                            <path id="Path_18937" d="M184.132 18.223l-2.157 9.255s-.133.048-.362.126c-1.065-2.857.207-6.653 2.519-9.381z" class="cls-1" data-name="Path 18937"/>
                        </g>
                        <g id="Group_2627" data-name="Group 2627">
                            <g id="Group_2625" data-name="Group 2625">
                                <path id="Path_18938" d="M174.8 31.234a6 6 0 0 1 2.017-1.621 20.122 20.122 0 0 1 3.156-.825c.131-.063 7.691 1.141 7.691 1.141l-2.256 1.408s-10.965.934-10.608-.103z" class="cls-28" data-name="Path 18938"/>
                            </g>
                            <g id="Group_2626" data-name="Group 2626">
                                <path id="Path_18939" d="M176.773 30.485c.072-.037.145-.077.217-.112a6.188 6.188 0 0 1 6.678.713c.125.115.229.24.343.361-2.407.172-7.215.457-8.735.117a5.828 5.828 0 0 1 1.497-1.079z" class="cls-30" data-name="Path 18939"/>
                            </g>
                        </g>
                    </g>
                    <g id="Group_2631" data-name="Group 2631">
                        <g id="Group_2629" data-name="Group 2629">
                            <path id="Path_18940" d="M164.11 39.017l18.412 3.119s.736.394.554.8-2.947.862-4.426 1.17a23.206 23.206 0 0 1-7.287-.257c-3.126-.5-16.251-.975-16.251-.975s-2.239-.352-1.112-1.366 7.886-2.908 10.11-2.491z" class="cls-28" data-name="Path 18940"/>
                        </g>
                        <g id="Group_2630" data-name="Group 2630">
                            <path id="Path_18941" d="M176.3 42.439a17.664 17.664 0 0 1-6.187.03c-1.657-.345-4.926-1.4-5.426-3.355l15.013 2.544a22.243 22.243 0 0 1-3.4.781z" class="cls-1" data-name="Path 18941"/>
                        </g>
                    </g>
                </g>
                <g id="Group_2648" data-name="Group 2648">
                    <g id="Group_2645" data-name="Group 2645">
                        <g id="Group_2633" data-name="Group 2633">
                            <path id="Path_18942" d="M281.019 95.8l4.023 10.621 10.8-6.528-4.694-10.003z" class="cls-30" data-name="Path 18942"/>
                        </g>
                        <g id="Group_2634" data-name="Group 2634">
                            <path id="Path_18943" d="M286.027 97.394l1.3 3.442 3.5-2.116-1.521-3.243z" class="cls-22" data-name="Path 18943"/>
                        </g>
                        <g id="Group_2635" data-name="Group 2635">
                            <path id="Path_18944" d="M285.042 106.425L274.1 100.09l6.915-4.286" class="cls-31" data-name="Path 18944"/>
                        </g>
                        <g id="Group_2636" class="cls-19" data-name="Group 2636">
                            <path id="Path_18945" d="M281.038 95.852l4 10.573-5.906-3.425z" class="cls-32" data-name="Path 18945"/>
                        </g>
                        <g id="Group_2637" data-name="Group 2637">
                            <path id="Path_18946" d="M287.366 100.853l.578-1.2-.07-.034-.578 1.2z" class="cls-33" data-name="Path 18946"/>
                        </g>
                        <g id="Group_2638" data-name="Group 2638">
                            <path id="Path_18947" d="M285.989 97.347l1.881 2.386 3.584-2.262-2.146-1.994z" class="cls-34" data-name="Path 18947"/>
                        </g>
                        <g id="Group_2639" data-name="Group 2639">
                            <path id="Path_18948" d="M257.6 93.618l4.023 10.621 10.8-6.528-4.699-10.011z" class="cls-30" data-name="Path 18948"/>
                        </g>
                        <g id="Group_2640" data-name="Group 2640">
                            <path id="Path_18949" d="M262.6 95.208l1.3 3.442 3.5-2.116-1.521-3.243z" class="cls-15" data-name="Path 18949"/>
                        </g>
                        <g id="Group_2641" data-name="Group 2641">
                            <path id="Path_18950" d="M261.618 104.238L250.68 97.9l6.915-4.286" class="cls-15" data-name="Path 18950"/>
                        </g>
                        <g id="Group_2642" class="cls-19" data-name="Group 2642">
                            <path id="Path_18951" d="M257.613 93.665l4 10.573-5.906-3.42z" class="cls-35" data-name="Path 18951"/>
                        </g>
                        <g id="Group_2643" data-name="Group 2643">
                            <path id="Path_18952" d="M263.942 98.667l.578-1.2-.07-.034-.578 1.2z" class="cls-33" data-name="Path 18952"/>
                        </g>
                        <g id="Group_2644" data-name="Group 2644">
                            <path id="Path_18953" d="M262.565 95.16l1.881 2.386 3.584-2.262-2.146-1.994z" class="cls-34" data-name="Path 18953"/>
                        </g>
                    </g>
                    <g id="Group_2646" data-name="Group 2646">
                        <path id="Path_18954" d="M290.867 98.735l.515-1.269-.073-.029-.515 1.269z" class="cls-33" data-name="Path 18954"/>
                    </g>
                    <g id="Group_2647" data-name="Group 2647">
                        <path id="Path_18955" d="M267.443 96.548l.515-1.269-.073-.029-.515 1.269z" class="cls-33" data-name="Path 18955"/>
                    </g>
                </g>
                <g id="Group_2972" data-name="Group 2972">
                    <path id="Path_15307" d="M244.064 100.47a5.712 5.712 0 0 0-3.193-.656c-.891.14-.907.66-.034 1.162a5.707 5.707 0 0 0 3.193.657c.891-.133.907-.66.034-1.163z" class="cls-36" data-name="Path 15307"/>
                    <path id="Path_15308" d="M243.013 93.082l-.216-.368-.309-.271-.3.206a1.809 1.809 0 0 1 .135.2.426.426 0 0 1-.135.428l.086.324.445.395.454-.233-.2-.406z" class="cls-12" data-name="Path 15308"/>
                    <path id="Path_15309" d="M242.427 92.589a.3.3 0 0 0-.069.125.293.293 0 0 0 .238.219.386.386 0 0 0 .39.269s.086-.173.064-.182-.623-.431-.623-.431z" class="cls-15" data-name="Path 15309"/>
                    <path id="Path_15310" d="M245.378 94.025a2.178 2.178 0 0 0-.392.211 7.766 7.766 0 0 0-1.264.4c-.055-.179-.16-.456-.251-.808a1.391 1.391 0 0 0-.185-.742.6.6 0 0 0-.316-.065l.211 1.38a3.051 3.051 0 0 0 .206.627.22.22 0 0 0 .125.111 7.249 7.249 0 0 0 1.48-.612 1.063 1.063 0 0 0 .276-.015 1.184 1.184 0 0 0 .226-.137s.037.1.113.088.128-.26.072-.358-.179-.105-.301-.08z" class="cls-12" data-name="Path 15310"/>
                    <g id="Group_1330" data-name="Group 1330">
                        <path id="Path_15311" d="M244.853 94.74a.088.088 0 0 0-.074.01l-.863.5a.255.255 0 0 0-.108.153l-.159.663c-.013.057 0 .1.027.116l.238.164.173-.339-.024-.007.874-.5a.233.233 0 0 0 .108-.233l-.035-.1.059-.021.04-.216s-.25-.173-.256-.175z" class="cls-37" data-name="Path 15311"/>
                        <path id="Path_15312" d="M245.128 94.944c-.015-.045-.059-.057-.108-.028l-.863.5a.263.263 0 0 0-.108.153l-.159.663c-.024.1.031.153.108.109l1.181-.682a.233.233 0 0 0 .108-.233z" class="cls-38" data-name="Path 15312"/>
                        <path id="Path_15313" d="M244.622 95.452l-.047.027a.127.127 0 0 0-.055.1v.09c0 .035.025.05.055.032l.047-.027a.119.119 0 0 0 .055-.1v-.09c0-.035-.025-.047-.055-.032z" class="cls-39" data-name="Path 15313"/>
                        <path id="Path_15314" d="M244.739 94.888a.031.031 0 0 0 .031.03.029.029 0 0 0 .029-.03v-.266l-.06.03z" class="cls-38" data-name="Path 15314"/>
                        <path id="Path_15315" d="M244.418 94.336h-.007a.783.783 0 0 0-.351.61v.332a.031.031 0 0 0 .03.031.029.029 0 0 0 .03-.03v-.332a.716.716 0 0 1 .322-.558h.007a.248.248 0 0 1 .162-.046l.086-.024a.263.263 0 0 0-.279.017z" class="cls-38" data-name="Path 15315"/>
                    </g>
                    <path id="Path_15316" d="M244.128 100.972l-.906-.142a.633.633 0 0 0 .067.368c.083.1.494.025.494.025s.732.137.751-.007c.024-.195-.209-.154-.406-.244z" class="cls-1" data-name="Path 15316"/>
                    <path id="Path_15317" d="M244.128 100.972a1.107 1.107 0 0 1-.367-.246c-.354-1 .025-1.865-.13-2.207-.085-.133.014-.659-.072-1.592-.022-.118-.992.272-.992.272l.53 1.587a2.822 2.822 0 0 0-.108.606c0 .151.127.629.207 1.1a2.565 2.565 0 0 1 .025.34c.086.268 1.203.283.907.14z" class="cls-12" data-name="Path 15317"/>
                    <path id="Path_15318" d="M240.746 99.564a.359.359 0 0 0-.227.347 1.849 1.849 0 0 0 .109.683.324.324 0 0 0 .562.117c.021-.054-.045-.136-.111-.241z" class="cls-1" data-name="Path 15318"/>
                    <path id="Path_15319" d="M241.525 98.4a1.093 1.093 0 0 0-.389.238 4.535 4.535 0 0 0-.39.929.466.466 0 0 0-.115.5c.135.658.448.4.448.4s-.073-.209-.114-.315a.359.359 0 0 1 .009-.092c.287-.991.937-1.126 1.028-1.4a5.745 5.745 0 0 0 .639-1.893l-1.115-.349a11.609 11.609 0 0 0-.001 1.982z" class="cls-12" data-name="Path 15319"/>
                    <path id="Path_15320" d="M243.337 95.616a14.745 14.745 0 0 0-1.541.31 3.208 3.208 0 0 0-.315.5 1.4 1.4 0 0 0-.029.717s.012.245.591.361a2.16 2.16 0 0 0 1.515-.575 7.381 7.381 0 0 1-.221-1.313z" class="cls-37" data-name="Path 15320"/>
                    <path id="Path_15321" d="M241.9 95.8a1.079 1.079 0 0 0-.1.125 1.052 1.052 0 0 0 1.541-.31v-.13z" class="cls-40" data-name="Path 15321"/>
                    <path id="Path_15322" d="M242.1 95.523a1.4 1.4 0 0 1-.2.277c.569.525 1.435-.147 1.435-.315 0-.054-.009-.18-.011-.276z" class="cls-12" data-name="Path 15322"/>
                    <path id="Path_15323" d="M242.986 93.065c-.152.261-.027.559-.12.651-.144.143-.389-.292-.681-.433-.162.211-.442.517-.442.517l.157 1.178a1.833 1.833 0 0 1 .2.545 1.1 1.1 0 0 0 1.221-.314 1.358 1.358 0 0 1 .056-.541.383.383 0 0 0 .308-.406c0-.325-.627-.7-.627-1.2-.099-.071-.045-.042-.072.003z" class="cls-37" data-name="Path 15323"/>
                    <path id="Path_15324" d="M243.246 91.952c-.036-.056-.314-.08-.314-.08l-.438.195-.207.52s.155.353.348.3c.009.31.557.359.647.281s.1-.341.1-.341.063-.045.065-.081a1.269 1.269 0 0 0-.092-.233.853.853 0 0 0-.109-.561z" class="cls-12" data-name="Path 15324"/>
                    <path id="Path_15325" d="M241.935 91.76c-.989.339-.232 1.421-.2 1.464.157-.022.308-.6.466-.617s-.078-.826-.266-.847z" class="cls-41" data-name="Path 15325"/>
                    <path id="Path_15326" d="M242.055 91.719a.235.235 0 1 0 .216.254v-.02a.226.226 0 0 0-.216-.234z" class="cls-37" data-name="Path 15326"/>
                    <path id="Path_15327" d="M242.05 91.85c-.455.9.271 1.006.271 1.006s.1-.049.065-.27c.124-.1.151.146.341.125a.444.444 0 0 0 .184-.455c.367-.087.335-.3.335-.3a.759.759 0 0 0-1.048-.229.793.793 0 0 0-.148.123z" class="cls-41" data-name="Path 15327"/>
                    <path id="Path_15328" d="M241.979 93.686c-.361-.043-.469.764-.469.764s-.195.981-.253 1.068c-.123.433.166 1.255.137 1.573a1.072 1.072 0 0 0 .008.519c.047.036.259.317.375.289s.065-.426.065-.426.081-.183.054-.216-.025-.037-.162-.253.043-.945-.065-1.378c.209-.418.579-1.457.579-1.457s.091-.44-.269-.483z" class="cls-12" data-name="Path 15328"/>
                    <path id="Path_15329" d="M242.45 94.733a.375.375 0 0 0 .431.308.365.365 0 0 0 .169-.075.441.441 0 0 1-.589-.208z" class="cls-38" data-name="Path 15329"/>
                </g>
            </g>
            <g id="Group_2971" data-name="Group 2971">
                <path id="Path_15287" d="M239.209 102.219a5.908 5.908 0 0 0-3.173-.621c-.885.132-.9.624-.034 1.1a5.93 5.93 0 0 0 3.173.621c.885-.133.901-.626.034-1.1z" class="cls-36" data-name="Path 15287"/>
                <path id="Path_15288" d="M236.915 93.59l-.19.051v.259l.129.424.237.336.57-.1s.2-.321.2-.336-.336-.55-.336-.55z" class="cls-42" data-name="Path 15288"/>
                <path id="Path_15289" d="M238.764 97.1c-.056.033-.283.155-.278.235a1.311 1.311 0 0 0 .221.432s-.14.374.212.479c.087.026.485-.124.224-.648a2.482 2.482 0 0 1-.379-.498z" class="cls-12" data-name="Path 15289"/>
                <path id="Path_15290" d="M239.063 102.314c-.133.012-.6.076-.6.076s.034.524.161.608.444-.046.444-.046.638.072.783-.127a.342.342 0 0 0-.121-.262c-.067-.063-.616-.063-.667-.249z" class="cls-43" data-name="Path 15290"/>
                <path id="Path_15291" d="M238.957 100.062a11.505 11.505 0 0 0-.733-3.031c-.106-.084-.988.939-.988.939s.6 1.64.862 2.194a18.319 18.319 0 0 0 .173 2.156c.378.35.9-.081.9-.081s-.241-1.961-.214-2.177z" class="cls-44" data-name="Path 15291"/>
                <path id="Path_15292" d="M235.38 101.346a2.987 2.987 0 0 0-.043.5 1.556 1.556 0 0 0 .771.872c.366.1.407-.17.407-.259 0-.2-.413-.538-.44-.81-.1-.067-.695-.303-.695-.303z" class="cls-43" data-name="Path 15292"/>
                <path id="Path_15293" d="M236.036 99.821s-.354.241-.4.411-.324 1.046-.324 1.134c.229.585.822.253.822.253a8.907 8.907 0 0 1 .631-1.38 9.334 9.334 0 0 0 .573-2.053c.474-.194.865-1.134.865-1.134l.015-.282-2.083.646a12.722 12.722 0 0 0-.099 2.405z" class="cls-45" data-name="Path 15293"/>
                <path id="Path_15294" d="M237.657 94.153a.377.377 0 0 1-.206.324c-.2.088-.657-.162-.657-.162l.358 3.159.879-.443-.077-2.669z" class="cls-46" data-name="Path 15294"/>
                <path id="Path_15295" d="M237.045 97.6l1.059-.51.11-.314-1.17.566z" class="cls-43" data-name="Path 15295"/>
                <path id="Path_15296" d="M238.364 94.27a.55.55 0 0 0-.529-.57.5.5 0 0 0-.086 0l.291 1.127.031 1.8.264.7a.679.679 0 0 0 .585-.245 7.285 7.285 0 0 0-.474-1.261 12.615 12.615 0 0 0-.082-1.551z" class="cls-46" data-name="Path 15296"/>
                <path id="Path_15297" d="M237.74 93.828l-.244.146a4.7 4.7 0 0 1 .339 1 20.52 20.52 0 0 1 0 2.3.99.99 0 0 0 .5-.382 10.93 10.93 0 0 0 .03-2.062 2.116 2.116 0 0 0-.625-1.002z" class="cls-1" data-name="Path 15297"/>
                <path id="Path_15298" d="M236.709 93.747c0 .035-.015.226-.015.226l.463.5a.411.411 0 0 0 .055-.271c-.038-.111-.365-.187-.503-.455z" class="cls-46" data-name="Path 15298"/>
                <path id="Path_15299" d="M236.693 93.973a3.97 3.97 0 0 1-.619.522c0-.082-.039 1.043-.039 1.043a2.627 2.627 0 0 1 .145.927 4.885 4.885 0 0 1-.062.879.988.988 0 0 0 .664.344 1.491 1.491 0 0 0 .748-.267 15.838 15.838 0 0 0-.057-2.386 1.825 1.825 0 0 0-.78-1.062z" class="cls-1" data-name="Path 15299"/>
                <path id="Path_15300" d="M237.687 92.7l-.379-.13-.329.031-.394.325v.344l.038.237c.023.139.218.195.218.195a1.049 1.049 0 0 0 .753.455.268.268 0 0 0 .211-.114 3.322 3.322 0 0 0 0-.857 1.694 1.694 0 0 0-.118-.486z" class="cls-12" data-name="Path 15300"/>
                <path id="Path_15301" d="M236.763 92.485c-.37.189-.249.665-.249.665a1.129 1.129 0 0 0 .111.352c.024.022-.061-.257.054-.264s.115.183.18.153c-.015-.245.176-.184.2-.436a1.648 1.648 0 0 0 .458-.073.656.656 0 0 0 .176-.188.637.637 0 0 0-.867-.249.605.605 0 0 0-.063.04z" class="cls-41" data-name="Path 15301"/>
                <path id="Path_15302" d="M236.754 98.195a.592.592 0 0 0 0-.214 1.577 1.577 0 0 0-.373-.216l-.345.129a2 2 0 0 0 .4.536.637.637 0 0 0 .568.16c.123-.061-.25-.395-.25-.395z" class="cls-12" data-name="Path 15302"/>
                <path id="Path_15303" d="M235.759 94.784a9.748 9.748 0 0 0-.671 1.831c.017.474.886 1.452.886 1.452a.443.443 0 0 0 .428-.4s-.449-.8-.61-1.057a12.105 12.105 0 0 0 .61-1.229s.105-.673-.092-.849-.416.068-.551.252z" class="cls-46" data-name="Path 15303"/>
                <path id="Path_15304" d="M236.688 97.837a.748.748 0 0 0-.608.476l.338.62.682-.367s-.215-.78-.412-.729z" class="cls-45" data-name="Path 15304"/>
                <path id="Path_15305" d="M236.619 97.768a2.23 2.23 0 0 1 .481.646 1.009 1.009 0 0 0-.481-.646z" class="cls-47" data-name="Path 15305"/>
                <path id="Path_15306" d="M236.172 98.381a.789.789 0 0 0 .622.347 1.331 1.331 0 0 1-.622-.347z" class="cls-47" data-name="Path 15306"/>
            </g>
        </g>
    </g>
</svg>
