<svg xmlns="http://www.w3.org/2000/svg" width="28.114" height="26.909" viewBox="0 0 28.114 26.909">
    <defs>
        <style>
            .cls-1{fill:#fff}
        </style>
    </defs>
    <g id="checked-icon" transform="translate(-15.892 -17.622)">
        <path id="Path" d="M23.577.035a1.36 1.36 0 0 0-.938.625l-12.266 18.2-5.781-5.7a1.284 1.284 0 0 0-1.953-.313L.374 15.113a1.9 1.9 0 0 0 0 2.266l8.75 8.75a4.52 4.52 0 0 0 1.953.781 2.257 2.257 0 0 0 1.8-1.016l15-22.031c.5-.752.215-1.455-.781-1.953l-2.5-1.8a1.81 1.81 0 0 0-1.019-.075z" class="cls-1" transform="translate(15.892 17.622)"/>
    </g>
</svg>
