<svg xmlns="http://www.w3.org/2000/svg" width="389" height="209" viewBox="0 0 389 209">
    <defs>
        <style>
            .cls-1{fill:#fff}.cls-2{fill:#e5e5e5}.cls-3{fill:#d1d1d1}.cls-4{fill:#ebebeb}.cls-5{fill:#fafafa}.cls-6{fill:#fcfcfc}.cls-7{fill:#757575}.cls-8{fill:#5b5b5b}.cls-9{fill:#b3b3b3}.cls-10{fill:#5d5d5d}.cls-11{fill:#696969}.cls-12{fill:#898989}.cls-13{fill:#959595}.cls-14{fill:none}.cls-15{fill:#f9f9f9}.cls-16{fill:#dadada}.cls-17{fill:#d4d4d4}.cls-18{fill:#c9c9c9}.cls-19{fill:#626262}.cls-20{fill:#d0d0d0}.cls-21{fill:#a6a6a6}.cls-22{fill:#393939}.cls-23{fill:#969696}.cls-24{fill:#b1b1b1}.cls-25{fill:#c6c6c6}.cls-26{fill:#cacaca}.cls-27{fill:#bdbdbd}.cls-28{fill:#535353}.cls-29{fill:#c4c4c4}.cls-30{fill:#6c6c6c}.cls-31{fill:#a2a2a2}.cls-32{fill:#515151}.cls-33{fill:#a7a7a7}.cls-34{fill:#777}.cls-35{fill:#8d8d8d}.cls-36{fill:#cfcfcf}.cls-37{fill:#606060}.cls-38{fill:#ccc}.cls-39{fill:#4d4d4d}.cls-40{fill:#2b2b2b}.cls-41{fill:#c3c3c3}.cls-42{fill:#787878}.cls-43{fill:#5e5e5e}.cls-44{fill:#b4b4b4}.cls-45{fill:#e1e1e1}.cls-46{fill:#3d3d3d}.cls-47{fill:#262626}.cls-48{fill:#dbdbdb}.cls-49{fill:#6f6f6f}.cls-50{fill:#acacac}.cls-51{fill:#767676}.cls-52{fill:#5a5a5a}
        </style>
    </defs>
    <g id="Group_3127" data-name="Group 3127" transform="translate(0 .049)">
        <path id="Rectangle_160" d="M0 0h389v209H0z" class="cls-1" data-name="Rectangle 160" transform="translate(0 -.049)"/>
        <g id="Group_3126" data-name="Group 3126">
            <rect id="Rectangle_106" width="210" height="136" class="cls-2" data-name="Rectangle 106" rx="10" transform="translate(77 46.217)"/>
            <g id="Group_1602" data-name="Group 1602">
                <g id="Group_1403" data-name="Group 1403">
                    <path id="Path_15555" d="M100.554 78.021c.026-.015.048-.024.074-.039a8.28 8.28 0 0 1 3.625-5.521 3.608 3.608 0 0 1 1.451-.5 12.519 12.519 0 0 1 1.164-2.689 10.947 10.947 0 0 1 3.8-4.006 3.836 3.836 0 0 1 3.808-.386l1.887 1.1a2.794 2.794 0 0 1 1.082 1.152 2.031 2.031 0 0 1 1.324.22l1.888 1.1h-.007a2.591 2.591 0 0 1 1.088 2.382 8.27 8.27 0 0 1-3.413 6.24l-15.86 9.147a2.107 2.107 0 0 1-2.3.145c.034.023.065.049.1.07l-1.888-1.1a2.165 2.165 0 0 1-.9-1.984 6.8 6.8 0 0 1 3.077-5.331z" class="cls-3" data-name="Path 15555"/>
                    <path id="Path_15556" d="M112.558 66.366a10.947 10.947 0 0 0-3.8 4.006 12.5 12.5 0 0 0-1.164 2.689 3.608 3.608 0 0 0-1.451.5 8.28 8.28 0 0 0-3.625 5.521c-.026.015-.048.024-.074.038a6.8 6.8 0 0 0-3.081 5.337c0 1.963 1.4 2.755 3.1 1.769l15.861-9.158a8.27 8.27 0 0 0 3.413-6.24c-.007-2.353-1.672-3.3-3.721-2.12-.034.02-.068.045-.1.065a3.461 3.461 0 0 0-1.551-2.792 3.834 3.834 0 0 0-3.807.385z" class="cls-4" data-name="Path 15556"/>
                </g>
                <g id="Group_1404" data-name="Group 1404">
                    <path id="Path_15557" d="M141.051 35.62c.039-.022.072-.036.111-.058a12.464 12.464 0 0 1 5.459-8.314 5.408 5.408 0 0 1 2.185-.752 18.824 18.824 0 0 1 1.752-4.049 16.473 16.473 0 0 1 5.72-6.031c2.073-1.2 4.148-1.486 5.734-.582l2.842 1.652a4.2 4.2 0 0 1 1.629 1.735 3.055 3.055 0 0 1 1.993.331l2.842 1.651h-.01a3.9 3.9 0 0 1 1.639 3.587 12.454 12.454 0 0 1-5.139 9.4l-23.884 13.784a3.172 3.172 0 0 1-3.461.219 1.359 1.359 0 0 0 .151.1l-2.842-1.651a3.26 3.26 0 0 1-1.359-2.988 10.231 10.231 0 0 1 4.638-8.034z" class="cls-3" data-name="Path 15557"/>
                    <path id="Path_15558" d="M159.12 18.068a16.481 16.481 0 0 0-5.72 6.032 18.824 18.824 0 0 0-1.752 4.049 5.423 5.423 0 0 0-2.185.752A12.467 12.467 0 0 0 144 37.214c-.039.022-.072.036-.111.058a10.233 10.233 0 0 0-4.639 8.036c.008 2.956 2.1 4.148 4.67 2.664l23.884-13.791a12.454 12.454 0 0 0 5.139-9.4c-.01-3.544-2.518-4.974-5.6-3.193-.051.03-.1.069-.155.1a5.212 5.212 0 0 0-2.335-4.2c-1.585-.907-3.66-.617-5.733.58z" class="cls-4" data-name="Path 15558"/>
                </g>
                <g id="Group_1434" data-name="Group 1434">
                    <g id="Group_1411" data-name="Group 1411">
                        <g id="Group_1410" data-name="Group 1410">
                            <g id="Group_1407" data-name="Group 1407">
                                <g id="Group_1405" data-name="Group 1405">
                                    <path id="Path_15559" d="M185.1 37.268l46.609-26.91v62.786l-46.609 39.68z" class="cls-5" data-name="Path 15559"/>
                                    <path id="Path_15560" d="M231.655 10.368v62.789l62.145 48.65V46.248z" class="cls-6" data-name="Path 15560"/>
                                </g>
                                <g id="Group_1406" data-name="Group 1406">
                                    <path id="Path_15561" d="M185.046 37.278v75.56l62.145 35.879V73.155z" class="cls-7" data-name="Path 15561"/>
                                    <path id="Path_15562" d="M247.191 73.162l46.609-26.91v75.56l-46.609 26.91z" class="cls-8" data-name="Path 15562"/>
                                </g>
                            </g>
                            <g id="Group_1409" data-name="Group 1409">
                                <path id="Path_15563" d="M185.046 37.278l62.145 35.879 46.609-26.91-62.146-35.879z" class="cls-9" data-name="Path 15563"/>
                                <g id="Group_1408" data-name="Group 1408">
                                    <path id="Path_15564" d="M186.968 37.277l44.686-25.8 60.223 34.769-44.686 25.8z" class="cls-10" data-name="Path 15564"/>
                                </g>
                                <path id="Path_15565" d="M231.654 17.4L192.1 40.241l55.09 31.806 39.555-22.836z" class="cls-11" data-name="Path 15565"/>
                            </g>
                        </g>
                    </g>
                    <ellipse id="Ellipse_18" cx="4.795" cy="23.047" class="cls-10" data-name="Ellipse 18" rx="4.795" ry="23.047" transform="rotate(-65.288 140.651 -149.16)"/>
                    <g id="Group_1423" data-name="Group 1423">
                        <g id="Group_1421" data-name="Group 1421">
                            <g id="Group_1420" data-name="Group 1420">
                                <g id="Group_1412" data-name="Group 1412">
                                    <path id="Path_15566" d="M239.817 45.379l2.59-1.505-1.642 2.309-2.59 1.505z" class="cls-12" data-name="Path 15566"/>
                                </g>
                                <g id="Group_1413" data-name="Group 1413">
                                    <path id="Path_15567" d="M241.462 43.072l2.59-1.5-1.645 2.307-2.59 1.505z" class="cls-12" data-name="Path 15567"/>
                                </g>
                                <g id="Group_1414" data-name="Group 1414">
                                    <path id="Path_15568" d="M223.672 8.9l2.59-1.5a3.674 3.674 0 0 1 3.7.363l-2.59 1.5a3.674 3.674 0 0 0-3.7-.363z" class="cls-12" data-name="Path 15568"/>
                                </g>
                                <g id="Group_1415" data-name="Group 1415">
                                    <path id="Path_15569" d="M255.378 46.331l-2.59 1.5a3.642 3.642 0 0 0 1.518-3.338l2.59-1.505a3.642 3.642 0 0 1-1.518 3.343z" class="cls-12" data-name="Path 15569"/>
                                </g>
                                <g id="Group_1416" data-name="Group 1416">
                                    <path id="Path_15570" d="M254.345 30.821l2.59-1.5-.035 13.672-2.59 1.505z" class="cls-12" data-name="Path 15570"/>
                                </g>
                                <g id="Group_1417" data-name="Group 1417">
                                    <path id="Path_15571" d="M227.375 9.26l2.59-1.505 21.785 12.578-2.59 1.5z" class="cls-12" data-name="Path 15571"/>
                                </g>
                                <g id="Group_1418" data-name="Group 1418">
                                    <path id="Path_15572" d="M249.16 21.837l2.59-1.5a11.434 11.434 0 0 1 5.185 8.988l-2.59 1.505a11.432 11.432 0 0 0-5.185-8.993z" class="cls-12" data-name="Path 15572"/>
                                </g>
                                <g id="Group_1419" data-name="Group 1419">
                                    <path id="Path_15573" d="M249.16 21.838a11.43 11.43 0 0 1 5.185 8.983l-.039 13.679c-.009 3.3-2.347 4.635-5.219 2.976l-7.626-4.4-1.647 2.3-1.642 2.308-1.624-4.194-1.62-4.194L227.3 34.9a11.428 11.428 0 0 1-5.187-8.985l.039-13.677c.009-3.3 2.347-4.635 5.221-2.975z" class="cls-13" data-name="Path 15573"/>
                                </g>
                            </g>
                        </g>
                        <g id="Group_1422" data-name="Group 1422">
                            <path id="Path_15574" d="M231.36 26.692a2.78 2.78 0 0 0-1.253-2.171l-1.525-.881-.008 2.905 1.525.881c.701.388 1.258.074 1.261-.734z" class="cls-14" data-name="Path 15574"/>
                            <path id="Path_15575" d="M230.6 22.111a2.1 2.1 0 0 0-.961-1.665l-1.049-.606-.01 2.243 1.049.606c.543.311.971.036.971-.578z" class="cls-14" data-name="Path 15575"/>
                            <path id="Path_15576" d="M232.715 27.474a5.662 5.662 0 0 0-1.228-3.254 1.782 1.782 0 0 0 .467-1.331 5.088 5.088 0 0 0-2.312-4l-1.685-.973h-.01l-.039-.023c-.365-.21-.672-.05-.674.384l-.023 8.275a1.5 1.5 0 0 0 .669 1.163l.039.008.009.02 2.161 1.247c1.448.83 2.621.154 2.626-1.516zm-4.128-7.635l1.049.606a2.1 2.1 0 0 1 .962 1.665c0 .614-.43.888-.968.578l-1.049-.606zm-.011 3.8l1.525.881a2.78 2.78 0 0 1 1.253 2.171c0 .812-.564 1.122-1.262.734l-1.525-.881z" class="cls-1" data-name="Path 15576"/>
                            <path id="Path_15577" d="M241.545 31.534l.014-5a1.451 1.451 0 0 0-.669-1.159c-.378-.218-.685-.058-.686.376l-.014 4.995c0 1.374-.971 1.94-2.18 1.243a4.788 4.788 0 0 1-2.166-3.752l.014-4.994a1.493 1.493 0 0 0-.682-1.166c-.378-.218-.672-.05-.673.384l-.014 5a7.743 7.743 0 0 0 3.517 6.092c1.95 1.124 3.528.208 3.539-2.019z" class="cls-1" data-name="Path 15577"/>
                            <path id="Path_15578" d="M250.227 31.023a1.28 1.28 0 0 0-.394-.378.447.447 0 0 0-.548 0l-2.1 2.078-2.076-4.488a1.353 1.353 0 0 0-.527-.624.552.552 0 0 0-.4-.08c-.307.078-.37.518-.137.99l2.465 5.372-.011 3.785a1.5 1.5 0 0 0 .669 1.163c.378.218.672.051.674-.388l.01-3.785 2.514-2.5v-.881a1.662 1.662 0 0 0-.139-.264z" class="cls-1" data-name="Path 15578"/>
                        </g>
                    </g>
                    <g id="Group_1433" data-name="Group 1433">
                        <g id="Group_1425" data-name="Group 1425">
                            <path id="Path_15579" d="M221.505 120.1V93.194l.641-.353v26.892z" class="cls-15" data-name="Path 15579"/>
                            <g id="Group_1424" data-name="Group 1424">
                                <path id="Path_15580" d="M188.106 73.9v26.922l33.4 19.283V93.2z" class="cls-1" data-name="Path 15580"/>
                                <path id="Path_15581" d="M189.067 100.269v-24.7l31.477 18.185v24.622z" class="cls-15" data-name="Path 15581"/>
                                <path id="Path_15582" d="M190.028 99.72V76.135l30.516 17.63v23.514z" class="cls-16" data-name="Path 15582"/>
                                <path id="Path_15583" d="M195.969 97.635a45.9 45.9 0 0 1 24.575 2.993v-6.867l-30.516-17.63V98.9a42.558 42.558 0 0 1 5.941-1.265z" class="cls-17" data-name="Path 15583"/>
                                <path id="Path_15584" d="M222.146 92.845l-33.417-19.2-.623.26 33.4 19.3z" class="cls-18" data-name="Path 15584"/>
                            </g>
                        </g>
                        <g id="Group_1430" data-name="Group 1430">
                            <path id="Path_15585" d="M190.321 47.922a13.273 13.273 0 0 0-4.829 4.841l-6 10.391 10.828-6.262z" class="cls-19" data-name="Path 15585"/>
                            <g id="Group_1429" data-name="Group 1429">
                                <path id="Path_15586" d="M190.321 47.922a13.273 13.273 0 0 0-4.829 4.841l-6 10.391 54.377 31.384 5.836-10.1a14.5 14.5 0 0 1 5.27-5.278z" class="cls-1" data-name="Path 15586"/>
                                <g id="Group_1428" data-name="Group 1428">
                                    <g id="Group_1427" data-name="Group 1427">
                                        <g id="Group_1426" data-name="Group 1426">
                                            <path id="Path_15587" d="M189.376 54.925a13.269 13.269 0 0 1 4.781-4.811l-3.836-2.192a13.273 13.273 0 0 0-4.829 4.841l-6 10.391 3.848 2.221z" class="cls-13" data-name="Path 15587"/>
                                            <path id="Path_15588" d="M196.636 59.072a13.284 13.284 0 0 1 4.781-4.811l-3.836-2.192a13.273 13.273 0 0 0-4.829 4.841l-6.017 10.423 3.824 2.208z" class="cls-13" data-name="Path 15588"/>
                                            <path id="Path_15589" d="M203.9 63.22a13.269 13.269 0 0 1 4.781-4.811l-3.836-2.192a13.281 13.281 0 0 0-4.829 4.841l-6.034 10.455 3.8 2.194z" class="cls-13" data-name="Path 15589"/>
                                            <path id="Path_15590" d="M211.156 67.368a13.269 13.269 0 0 1 4.781-4.811l-3.837-2.193a13.281 13.281 0 0 0-4.829 4.841l-6.051 10.489 3.78 2.18z" class="cls-13" data-name="Path 15590"/>
                                            <path id="Path_15591" d="M218.416 71.515A13.261 13.261 0 0 1 223.2 66.7l-3.836-2.193a13.273 13.273 0 0 0-4.829 4.841l-6.069 10.521 3.752 2.17z" class="cls-13" data-name="Path 15591"/>
                                            <path id="Path_15592" d="M225.675 75.662a13.276 13.276 0 0 1 4.781-4.811l-3.836-2.192a13.266 13.266 0 0 0-4.829 4.841L215.7 84.053l3.729 2.152z" class="cls-13" data-name="Path 15592"/>
                                            <path id="Path_15593" d="M232.935 79.81a13.276 13.276 0 0 1 4.781-4.81l-3.836-2.193a13.273 13.273 0 0 0-4.829 4.841l-6.1 10.586 3.705 2.138z" class="cls-13" data-name="Path 15593"/>
                                            <path id="Path_15594" d="M240.2 83.957a13.284 13.284 0 0 1 4.781-4.811l-3.837-2.192a13.278 13.278 0 0 0-4.828 4.841l-6.122 10.618 3.681 2.125z" class="cls-13" data-name="Path 15594"/>
                                        </g>
                                    </g>
                                    <path id="Path_15595" d="M244.976 79.156v8.97l-11.109 6.408 5.836-10.1a14.5 14.5 0 0 1 5.27-5.278z" class="cls-12" data-name="Path 15595"/>
                                </g>
                            </g>
                        </g>
                        <g id="Group_1432" data-name="Group 1432">
                            <g id="Group_1431" data-name="Group 1431">
                                <path id="Path_15596" d="M231.672 96.668a5.19 5.19 0 0 0-7.785 4.5v34.1l.962.555v-34.66a4.246 4.246 0 0 1 4.236-4.237 4.17 4.17 0 0 1 2.106.574 14.549 14.549 0 0 1 7.254 12.565v33.6l.962.555v-34.155a15.472 15.472 0 0 0-7.735-13.397z" class="cls-1" data-name="Path 15596"/>
                                <path id="Path_15597" d="M231.192 97.5a4.17 4.17 0 0 0-2.106-.574 4.246 4.246 0 0 0-4.236 4.237v34.659l13.6 7.85v-33.6a14.547 14.547 0 0 0-7.258-12.572z" class="cls-12" data-name="Path 15597"/>
                            </g>
                            <path id="Path_15598" d="M237.3 121.08a.89.89 0 0 0-1.24-.777c-.666.242-.789 1.17-.61 1.764a.878.878 0 0 0 1.312.579 1.523 1.523 0 0 0 .538-1.566z" class="cls-1" data-name="Path 15598"/>
                        </g>
                    </g>
                </g>
                <g id="Group_1493" data-name="Group 1493">
                    <g id="Group_1460" data-name="Group 1460">
                        <g id="Group_1459" data-name="Group 1459">
                            <path id="Path_15599" d="M159.077 118.976c.439-.151 1.382-.175 1.438.411a.2.2 0 0 1 .029.084 5.116 5.116 0 0 1-.053 1.809c-.08.311-.236.839-.6.934-.632.164-.806-.691-.9-1.388-.007.009-.011.018-.019.027-.089.1-.29.121-.341-.036-.18-.545-.239-1.602.446-1.841z" class="cls-20" data-name="Path 15599"/>
                            <g id="Group_1446" data-name="Group 1446">
                                <g id="Group_1439" data-name="Group 1439">
                                    <g id="Group_1436" data-name="Group 1436">
                                        <path id="Path_15600" d="M158.862 142.377c.734-.409 2.878-1.738 2.878-1.738.244-.147.549-5.94.8-5.8l.066.038c.349.2.349 7.461 0 7.663l-2.943 1.7a1.14 1.14 0 0 1-1.234-.294c-.353-.315-.564-1.014.433-1.569z" class="cls-21" data-name="Path 15600"/>
                                        <g id="Group_1435" data-name="Group 1435">
                                            <path id="Path_15601" d="M158.168 143.115a.9.9 0 0 0 .3.634 1.19 1.19 0 0 0 1.287.306l3-1.733a.423.423 0 0 1-.156.222l-2.943 1.7a1.14 1.14 0 0 1-1.234-.294.826.826 0 0 1-.254-.835z" class="cls-22" data-name="Path 15601"/>
                                        </g>
                                    </g>
                                    <g id="Group_1438" data-name="Group 1438">
                                        <path id="Path_15602" d="M163.738 144.4c.734-.409 2.878-1.738 2.878-1.738a.788.788 0 0 1 .8-.008l.066.038a1.811 1.811 0 0 1 0 1.873l-2.944 1.7a1.138 1.138 0 0 1-1.233-.294c-.353-.32-.563-1.018.433-1.571z" class="cls-21" data-name="Path 15602"/>
                                        <g id="Group_1437" data-name="Group 1437">
                                            <path id="Path_15603" d="M163.043 145.135a.9.9 0 0 0 .3.633 1.188 1.188 0 0 0 1.287.307l3-1.733a.42.42 0 0 1-.155.221l-2.944 1.7a1.138 1.138 0 0 1-1.233-.294.824.824 0 0 1-.255-.834z" class="cls-22" data-name="Path 15603"/>
                                        </g>
                                    </g>
                                </g>
                                <g id="Group_1442" data-name="Group 1442">
                                    <g id="Group_1440" data-name="Group 1440">
                                        <path id="Path_15604" d="M163.994 122.234h4.879c.075 0-1.142 20.439-1.151 20.559a1.386 1.386 0 0 1-1.232 1.311c-.543 0-1.2-.067-1.345-1.311-.009-.12-1.226-20.559-1.151-20.559z" class="cls-8" data-name="Path 15604"/>
                                        <path id="Path_15605" d="M167.031 136.063c.68-3.145 1.584-9.016.251-13.829h1.59c.075 0-1.142 20.439-1.151 20.559a1.84 1.84 0 0 1-.094.409 1.426 1.426 0 0 1-.127.264l-.017.029a1.192 1.192 0 0 1-.152.194l-.025.026a1.193 1.193 0 0 1-.167.142l-.021.014a1.4 1.4 0 0 1-.339.169l-.019.006a.948.948 0 0 1-.129.036h-.018l-.085.015h-.054c-.54 0-1.183-.078-1.33-1.311l-.023-.278a.8.8 0 0 0 .076.078c.649.595 1.638-5.616 1.834-6.523z" class="cls-22" data-name="Path 15605"/>
                                    </g>
                                    <g id="Group_1441" data-name="Group 1441">
                                        <path id="Path_15606" d="M159.291 120.327h4.879c.074 0-1.142 14.649-1.151 14.77-.148 1.244-1.233 7.1-1.233 7.1-.543 0-1.2-.067-1.345-1.311-.009-.12-1.225-20.559-1.15-20.559z" class="cls-8" data-name="Path 15606"/>
                                        <path id="Path_15607" d="M162.328 134.156c.68-3.145 1.584-9.016.251-13.829h1.59c.074 0-1.142 14.649-1.151 14.77-.018.154-.051 6.078-.094 6.2a1.424 1.424 0 0 1-.127.264l-.017.029a1.193 1.193 0 0 1-.152.194l-.025.026a1.193 1.193 0 0 1-.167.142l-.02.013a1.36 1.36 0 0 1-.339.169l-.018.006a1.47 1.47 0 0 1-.129.036h-.018l-.085.015h-.054c-.54 0-1.183-.078-1.33-1.31l-.023-.279a.812.812 0 0 0 .076.079c.65.597 1.636-5.618 1.832-6.525z" class="cls-22" data-name="Path 15607"/>
                                    </g>
                                </g>
                                <g id="Group_1445" data-name="Group 1445">
                                    <g id="Group_1443" data-name="Group 1443">
                                        <path id="Path_15608" d="M164.846 143.869a1.818 1.818 0 0 1 .7.5c.114.132-.078.325-.192.192a1.525 1.525 0 0 0-.583-.427c-.157-.068-.087-.334.075-.265z" class="cls-8" data-name="Path 15608"/>
                                        <path id="Path_15609" d="M164.332 144.238a1.818 1.818 0 0 1 .7.5c.114.132-.078.325-.192.192a1.525 1.525 0 0 0-.583-.427c-.157-.065-.087-.327.075-.265z" class="cls-8" data-name="Path 15609"/>
                                        <path id="Path_15610" d="M165.032 143.322c.02-.053.041-.1.058-.142a.573.573 0 0 1 .11-.18c.159-.16.448-.046.618.038a1.022 1.022 0 0 1 .5.475c.072.221-.156.376-.27.527-.028.037-.05.078-.079.113a.224.224 0 0 1-.315.023.239.239 0 0 1-.022-.023 1.507 1.507 0 0 0-.492-.292c-.24-.071-.183-.336-.108-.539z" class="cls-23" data-name="Path 15610"/>
                                    </g>
                                    <g id="Group_1444" data-name="Group 1444">
                                        <path id="Path_15611" d="M159.971 141.849a1.818 1.818 0 0 1 .7.5c.113.132-.078.325-.192.192a1.525 1.525 0 0 0-.583-.427c-.158-.068-.088-.33.075-.265z" class="cls-8" data-name="Path 15611"/>
                                        <path id="Path_15612" d="M159.455 142.221a1.811 1.811 0 0 1 .7.5c.113.132-.078.325-.192.192a1.525 1.525 0 0 0-.583-.427c-.157-.068-.08-.331.075-.265z" class="cls-8" data-name="Path 15612"/>
                                        <path id="Path_15613" d="M160.157 141.3c.02-.053.041-.1.058-.142a.573.573 0 0 1 .109-.178c.158-.16.448-.046.618.038a1.022 1.022 0 0 1 .5.475c.072.221-.156.376-.27.527-.028.037-.05.078-.079.113a.224.224 0 0 1-.315.023.239.239 0 0 1-.022-.023 1.507 1.507 0 0 0-.492-.292c-.239-.071-.184-.336-.107-.541z" class="cls-23" data-name="Path 15613"/>
                                    </g>
                                </g>
                            </g>
                            <g id="Group_1455" data-name="Group 1455">
                                <g id="Group_1452" data-name="Group 1452">
                                    <g id="Group_1447" data-name="Group 1447">
                                        <path id="Path_15614" d="M168.118 124.1a1.236 1.236 0 0 1 .678-.2c.492-.017.824.329.826.974v1.272a.262.262 0 0 1-.119.2.237.237 0 0 1-.134.019c-.039 0-.126-.013-.125-.089v-1.257c0-.472-.226-.755-.557-.788a1.09 1.09 0 0 0-.425.148 2.46 2.46 0 0 0-1.115 1.931v1.255a.289.289 0 0 1-.12.206c-.064.047-.262.027-.262-.068v-1.255a2.991 2.991 0 0 1 1.353-2.348z" class="cls-24" data-name="Path 15614"/>
                                        <path id="Path_15615" d="M169.622 124.876v1.272a.262.262 0 0 1-.119.2c-.066.038-.12.006-.119-.071v-1.269c0-.709-.506-1-1.123-.64a2.46 2.46 0 0 0-1.115 1.931v1.255a.261.261 0 0 1-.12.206c-.066.038-.12.008-.12-.068v-1.255a2.989 2.989 0 0 1 1.354-2.345c.748-.425 1.359-.077 1.362.784z" class="cls-25" data-name="Path 15615"/>
                                    </g>
                                    <g id="Group_1450" data-name="Group 1450">
                                        <path id="Path_15616" d="M171.45 132.97l-1.116-.644V125.2l1.116.644z" class="cls-12" data-name="Path 15616"/>
                                        <g id="Group_1448" data-name="Group 1448">
                                            <path id="Path_15617" d="M170.335 125.2v7.127l-4.281 2.471v-7.126z" class="cls-12" data-name="Path 15617"/>
                                        </g>
                                        <g id="Group_1449" data-name="Group 1449">
                                            <path id="Path_15618" d="M171.451 125.842v7.127l-4.281 2.471v-7.126z" class="cls-21" data-name="Path 15618"/>
                                        </g>
                                        <path id="Path_15619" d="M167.168 135.44l-1.116-.644v-7.126l1.116.641z" class="cls-23" data-name="Path 15619"/>
                                    </g>
                                    <g id="Group_1451" data-name="Group 1451">
                                        <path id="Path_15620" d="M169.212 124.539a1.236 1.236 0 0 1 .678-.2c.492-.016.824.329.826.975v1.273a.262.262 0 0 1-.119.2.237.237 0 0 1-.134.019c-.038 0-.126-.012-.125-.089v-1.27c0-.472-.226-.756-.557-.788a1.112 1.112 0 0 0-.425.148 2.462 2.462 0 0 0-1.115 1.931v1.255a.289.289 0 0 1-.12.206c-.064.047-.262.027-.262-.068v-1.255a2.99 2.99 0 0 1 1.353-2.337z" class="cls-24" data-name="Path 15620"/>
                                        <path id="Path_15621" d="M170.716 125.316v1.273a.262.262 0 0 1-.119.2c-.066.038-.12.006-.119-.07v-1.265c0-.709-.506-1-1.123-.64a2.462 2.462 0 0 0-1.115 1.931V128a.262.262 0 0 1-.12.206c-.066.039-.121.008-.121-.068v-1.255a2.989 2.989 0 0 1 1.354-2.345c.747-.429 1.361-.083 1.363.778z" class="cls-25" data-name="Path 15621"/>
                                    </g>
                                </g>
                                <g id="Group_1454" data-name="Group 1454">
                                    <path id="Path_15622" d="M168.272 122.433c.439-.151 1.382-.175 1.439.411a.2.2 0 0 1 .029.084 5.1 5.1 0 0 1-.053 1.81c-.08.311-.236.839-.6.934-.632.164-.806-.691-.9-1.388-.008.009-.012.018-.02.027-.088.1-.29.121-.341-.036-.178-.546-.237-1.604.446-1.842z" class="cls-20" data-name="Path 15622"/>
                                    <g id="Group_1453" data-name="Group 1453">
                                        <path id="Path_15623" d="M158.8 108.363a3.615 3.615 0 0 1 5.415-2.942l2.3 1.326c.013 0 .278.146.642.357a4.85 4.85 0 0 1 2.411 3.874c.176 2.664.528 8.76.468 11.273a1.585 1.585 0 0 1-1.3 1.537 3.067 3.067 0 0 1-1.36-.086 1.577 1.577 0 0 0-.7-.032c-4.52.726-6.438-1.172-7.694-3.529a.308.308 0 0 1-.013-.043.824.824 0 0 1-.653-.479c-.081-.191.224-6.372.484-11.256z" class="cls-26" data-name="Path 15623"/>
                                        <path id="Path_15624" d="M159.555 110.567s-.4 9.9-.574 9.574a.3.3 0 0 1-.013-.043.824.824 0 0 1-.653-.479c.785-.265 1.196-8.855 1.24-9.052z" class="cls-27" data-name="Path 15624"/>
                                        <path id="Path_15625" d="M166.758 111.529c.447 5.4.026 10.951.615 12.174a1.577 1.577 0 0 0-.7-.032c.011-4.621-.279-12.353.085-12.142z" class="cls-27" data-name="Path 15625"/>
                                    </g>
                                </g>
                            </g>
                            <g id="Group_1458" data-name="Group 1458">
                                <path id="Path_15627" d="M162.337 106.386a24.144 24.144 0 0 1 4.8-3.937l-9.866-3.693 1.377 12.375a4.22 4.22 0 0 1 3.627-4.737z" class="cls-28" data-name="Path 15627"/>
                                <g id="Group_1456" data-name="Group 1456">
                                    <path id="Path_15628" d="M158.316 101.172c0-3.223 1.909-6.592 5.132-6.592a5.836 5.836 0 0 1 5.836 5.836c0 3.213-2.6 6.251-5.8 6.272v1.881a1.817 1.817 0 0 1-1.817-1.816v-.336c-2.132-.693-3.351-2.673-3.351-5.245z" class="cls-20" data-name="Path 15628"/>
                                    <path id="Path_15629" d="M162.888 108.462l-.079-2.724a6.565 6.565 0 0 0-.218-2.6c-.763-1.5-2.95-1.894-4.121-2.944a.261.261 0 0 0-.085-.05c.358-2.872 2.183-5.56 5.063-5.56a5.836 5.836 0 0 1 5.836 5.836c0 3.213-2.6 6.251-5.8 6.272v1.881a1.787 1.787 0 0 1-.596-.111z" class="cls-29" data-name="Path 15629"/>
                                </g>
                                <g id="Group_1457" data-name="Group 1457">
                                    <path id="Path_15630" d="M162.238 100.243a3.688 3.688 0 0 1 1.9 3.29l-.109 6.381a.381.381 0 0 1-.573-.334l.043-5.421a3.417 3.417 0 0 0-1.8-3.037l-4.419-2.367a3.286 3.286 0 0 1 .139-.934 47.38 47.38 0 0 1 4.819 2.422z" class="cls-30" data-name="Path 15630"/>
                                    <path id="Path_15631" d="M165.163 96.1a10.5 10.5 0 0 0-3.43 2.118 4.487 4.487 0 0 1 3.43-2.118z" class="cls-30" data-name="Path 15631"/>
                                </g>
                            </g>
                        </g>
                        <path id="Path_15632" d="M169.619 100.105a5.633 5.633 0 0 0-2.817-4.878 6.708 6.708 0 0 0-6.71 0l-1.169.675a3.3 3.3 0 0 0-1.648 2.854l4.419 2.367a3.416 3.416 0 0 1 1.8 3.036s-.2 6.59-.324 9.855c-.024.607 1.821-.642 2.018-1.146a6.79 6.79 0 0 0 .3-1.679 5.849 5.849 0 0 1 1.243-2.834l.388-.224c.275-.08 1.334-.72 2.233 1.509.039-.909.267-9.535.267-9.535z" class="cls-28" data-name="Path 15632"/>
                    </g>
                </g>
                <g id="Group_1517" data-name="Group 1517">
                    <g id="Group_1514" data-name="Group 1514">
                        <g id="Group_1511" data-name="Group 1511">
                            <g id="Group_1505" data-name="Group 1505">
                                <g id="Group_1498" data-name="Group 1498">
                                    <g id="Group_1495" data-name="Group 1495">
                                        <path id="Path_15664" d="M136.063 199.885c.725-.4 2.843-1.716 2.843-1.716a.776.776 0 0 1 .787-.008l.065.038a1.787 1.787 0 0 1 0 1.85l-2.908 1.679a1.125 1.125 0 0 1-1.218-.29c-.344-.314-.553-1.004.431-1.553z" class="cls-31" data-name="Path 15664"/>
                                        <g id="Group_1494" data-name="Group 1494">
                                            <path id="Path_15665" d="M135.378 200.614a.892.892 0 0 0 .3.625 1.173 1.173 0 0 0 1.272.3l2.965-1.712a.415.415 0 0 1-.153.219l-2.908 1.679a1.124 1.124 0 0 1-1.218-.29.816.816 0 0 1-.258-.821z" class="cls-22" data-name="Path 15665"/>
                                        </g>
                                    </g>
                                    <g id="Group_1497" data-name="Group 1497">
                                        <path id="Path_15666" d="M140.88 201.881c.725-.4 2.843-1.716 2.843-1.716a.776.776 0 0 1 .786-.008l.065.038a1.787 1.787 0 0 1 0 1.85l-2.907 1.679a1.125 1.125 0 0 1-1.218-.29c-.343-.315-.549-1.006.431-1.553z" class="cls-31" data-name="Path 15666"/>
                                        <g id="Group_1496" data-name="Group 1496">
                                            <path id="Path_15667" d="M140.2 202.611a.89.89 0 0 0 .3.626 1.174 1.174 0 0 0 1.271.3l2.965-1.712a.417.417 0 0 1-.154.219l-2.907 1.679a1.124 1.124 0 0 1-1.218-.29.815.815 0 0 1-.257-.822z" class="cls-22" data-name="Path 15667"/>
                                        </g>
                                    </g>
                                </g>
                                <g id="Group_1501" data-name="Group 1501">
                                    <g id="Group_1499" data-name="Group 1499">
                                        <path id="Path_15668" d="M141.134 181.569h4.82c.073 0-1.128 18.6-1.137 18.725a1.369 1.369 0 0 1-1.217 1.295c-.536 0-1.182-.066-1.329-1.295-.009-.117-1.211-18.725-1.137-18.725z" class="cls-30" data-name="Path 15668"/>
                                        <path id="Path_15669" d="M144.134 199.369c.671-3.107 1.565-13.041.248-17.8h1.57c.073 0-1.128 18.6-1.137 18.725a1.817 1.817 0 0 1-.093.4 1.4 1.4 0 0 1-.126.261l-.017.029a1.214 1.214 0 0 1-.15.191l-.025.025a1.221 1.221 0 0 1-.165.14l-.02.013a1.346 1.346 0 0 1-.335.167l-.018.006c-.048.015-.09.027-.128.035h-.018l-.084.015h-.053c-.534 0-1.169-.077-1.314-1.295l-.022-.275a.692.692 0 0 0 .075.078 1.114 1.114 0 0 0 1.812-.715z" class="cls-32" data-name="Path 15669"/>
                                    </g>
                                    <g id="Group_1500" data-name="Group 1500">
                                        <path id="Path_15670" d="M136.488 179.687h4.819c.074 0-1.128 18.606-1.136 18.725a1.37 1.37 0 0 1-1.217 1.295c-.537 0-1.182-.066-1.329-1.295-.009-.119-1.211-18.725-1.137-18.725z" class="cls-30" data-name="Path 15670"/>
                                        <path id="Path_15671" d="M139.487 197.483c.671-3.107 1.565-13.041.248-17.8h1.57c.074 0-1.128 18.606-1.136 18.725a1.818 1.818 0 0 1-.093.4 1.456 1.456 0 0 1-.125.261l-.017.029a1.215 1.215 0 0 1-.15.191l-.025.026a1.153 1.153 0 0 1-.165.14l-.02.013a1.363 1.363 0 0 1-.335.167l-.018.006c-.048.015-.09.027-.128.035h-.018l-.084.015h-.053c-.533 0-1.168-.077-1.314-1.294l-.022-.275a.69.69 0 0 0 .075.078 1.113 1.113 0 0 0 1.81-.717z" class="cls-32" data-name="Path 15671"/>
                                    </g>
                                </g>
                                <g id="Group_1504" data-name="Group 1504">
                                    <g id="Group_1502" data-name="Group 1502">
                                        <path id="Path_15672" d="M141.976 201.358a1.774 1.774 0 0 1 .694.49c.112.13-.077.321-.19.19a1.5 1.5 0 0 0-.575-.421c-.159-.064-.093-.324.071-.259z" class="cls-8" data-name="Path 15672"/>
                                        <path id="Path_15673" d="M141.468 201.723a1.781 1.781 0 0 1 .694.49c.112.13-.077.321-.19.19a1.512 1.512 0 0 0-.575-.421c-.159-.059-.089-.321.071-.259z" class="cls-8" data-name="Path 15673"/>
                                        <path id="Path_15674" d="M142.16 200.818c.02-.052.041-.1.058-.14a.561.561 0 0 1 .108-.176c.156-.158.442-.046.61.037a1 1 0 0 1 .5.469c.072.218-.153.372-.267.52-.028.036-.049.077-.078.112a.219.219 0 0 1-.31.022.229.229 0 0 1-.022-.022 1.487 1.487 0 0 0-.486-.288c-.248-.072-.188-.333-.113-.534z" class="cls-12" data-name="Path 15674"/>
                                    </g>
                                    <g id="Group_1503" data-name="Group 1503">
                                        <path id="Path_15675" d="M137.159 199.362a1.809 1.809 0 0 1 .694.49c.112.13-.077.321-.19.19a1.514 1.514 0 0 0-.575-.422c-.159-.063-.088-.32.071-.258z" class="cls-8" data-name="Path 15675"/>
                                        <path id="Path_15676" d="M136.651 199.73a1.809 1.809 0 0 1 .694.49c.112.13-.077.321-.19.19a1.5 1.5 0 0 0-.575-.422c-.159-.063-.089-.32.071-.258z" class="cls-8" data-name="Path 15676"/>
                                        <path id="Path_15677" d="M137.343 198.822c.019-.052.04-.1.057-.14a.561.561 0 0 1 .108-.176c.156-.158.442-.046.61.038a1 1 0 0 1 .5.469c.071.218-.154.372-.267.521-.028.036-.049.077-.078.112a.22.22 0 0 1-.31.023.25.25 0 0 1-.023-.023 1.487 1.487 0 0 0-.486-.288c-.242-.074-.186-.335-.111-.536z" class="cls-12" data-name="Path 15677"/>
                                    </g>
                                </g>
                            </g>
                            <g id="Group_1507" data-name="Group 1507">
                                <path id="Path_15678" d="M145.362 181.768c.433-.149 1.365-.173 1.421.406a.192.192 0 0 1 .029.083 5.045 5.045 0 0 1-.053 1.788c-.079.307-.233.828-.6.922-.625.163-.8-.682-.89-1.371-.007.008-.011.018-.019.026-.088.1-.287.12-.337-.036-.17-.538-.227-1.586.449-1.818z" class="cls-20" data-name="Path 15678"/>
                                <g id="Group_1506" data-name="Group 1506">
                                    <path id="Path_15679" d="M136 167.87a3.571 3.571 0 0 1 5.349-2.907l2.275 1.311c.013 0 .274.144.634.353a4.791 4.791 0 0 1 2.382 3.826c.174 2.631.522 8.653.462 11.135a1.564 1.564 0 0 1-1.286 1.519 3.021 3.021 0 0 1-1.343-.085 1.562 1.562 0 0 0-.69-.032c-4.465.718-6.359-1.157-7.6-3.485a.3.3 0 0 1-.012-.043.811.811 0 0 1-.645-.473c-.08-.189.221-6.296.474-11.119z" class="cls-25" data-name="Path 15679"/>
                                    <path id="Path_15680" d="M136.75 170.047s-.4 9.78-.567 9.457a.3.3 0 0 1-.012-.043.815.815 0 0 1-.645-.473c.774-.262 1.181-8.746 1.224-8.941z" class="cls-33" data-name="Path 15680"/>
                                    <path id="Path_15681" d="M143.865 171c.442 5.333.026 10.817.608 12.025a1.562 1.562 0 0 0-.69-.032c.009-4.568-.278-12.206.082-11.993z" class="cls-33" data-name="Path 15681"/>
                                </g>
                            </g>
                            <g id="Group_1510" data-name="Group 1510">
                                <path id="Path_15683" d="M134.5 158.348l.085 8.98a.3.3 0 0 0 .462.262l9.283-5.563z" class="cls-28" data-name="Path 15683"/>
                                <g id="Group_1508" data-name="Group 1508">
                                    <path id="Path_15684" d="M135.525 160.765c0-3.184 1.885-6.511 5.069-6.511a5.765 5.765 0 0 1 5.765 5.765c0 3.174-2.564 6.175-5.733 6.2v1.858a1.8 1.8 0 0 1-1.794-1.795v-.332c-2.103-.685-3.307-2.643-3.307-5.185z" class="cls-20" data-name="Path 15684"/>
                                    <path id="Path_15685" d="M140.041 167.965l-.079-2.691a6.467 6.467 0 0 0-.215-2.573c-.754-1.482-2.914-1.871-4.07-2.908a.262.262 0 0 0-.084-.049c.354-2.837 2.157-5.492 5-5.492a5.765 5.765 0 0 1 5.765 5.765c0 3.174-2.564 6.175-5.733 6.2v1.858a1.742 1.742 0 0 1-.584-.11z" class="cls-29" data-name="Path 15685"/>
                                </g>
                                <g id="Group_1509" data-name="Group 1509">
                                    <path id="Path_15686" d="M136.126 155.561l1.154-.667a6.633 6.633 0 0 1 6.628 0 5.564 5.564 0 0 1 2.782 4.819v4a4.325 4.325 0 0 1-2.163 3.746l-3.362 1.941a.378.378 0 0 1-.566-.33l.043-5.354a3.372 3.372 0 0 0-1.78-3l-4.365-2.338a3.256 3.256 0 0 1 1.629-2.817z" class="cls-28" data-name="Path 15686"/>
                                    <path id="Path_15687" d="M139.4 159.848a3.645 3.645 0 0 1 1.874 3.25l-.107 6.3a.378.378 0 0 1-.566-.33l.043-5.354a3.372 3.372 0 0 0-1.78-3l-4.365-2.338a3.238 3.238 0 0 1 .138-.922 46.8 46.8 0 0 1 4.763 2.394z" class="cls-30" data-name="Path 15687"/>
                                    <path id="Path_15688" d="M142.288 155.757a10.358 10.358 0 0 0-3.388 2.092 4.431 4.431 0 0 1 3.388-2.092z" class="cls-30" data-name="Path 15688"/>
                                </g>
                            </g>
                        </g>
                        <g id="Group_1513" data-name="Group 1513">
                            <g id="Group_1512" data-name="Group 1512">
                                <path id="Path_15689" d="M137.722 177.588a.081.081 0 0 1 .008-.025.081.081 0 0 0-.008.025z" class="cls-14" data-name="Path 15689"/>
                                <path id="Path_15690" d="M139.21 178.17v-.015a.038.038 0 0 1 0 .015z" class="cls-14" data-name="Path 15690"/>
                                <path id="Path_15692" d="M138.094 177.56z" class="cls-14" data-name="Path 15692"/>
                                <path id="Path_15693" d="M133.06 179.131a.018.018 0 0 0 .006.016c.006.005-.004-.011-.006-.016z" class="cls-14" data-name="Path 15693"/>
                                <path id="Path_15694" d="M137.731 177.614z" class="cls-31" data-name="Path 15694"/>
                                <path id="Path_15695" d="M138.1 177.559a.071.071 0 0 1 .009.028.076.076 0 0 0-.009-.028z" class="cls-31" data-name="Path 15695"/>
                                <path id="Path_15696" d="M137.73 177.564l.005-.017z" class="cls-31" data-name="Path 15696"/>
                                <path id="Path_15697" d="M137.735 177.625a.022.022 0 0 0-.005-.016z" class="cls-35" data-name="Path 15697"/>
                                <path id="Path_15699" d="M138.108 177.587a.1.1 0 0 1-.057.078.3.3 0 0 1-.27 0 .112.112 0 0 1-.042-.036v-.041a.076.076 0 0 1 .008-.024l.005-.017a.125.125 0 0 1 .042-.037.305.305 0 0 1 .27 0 .125.125 0 0 1 .042.037v.013a.083.083 0 0 1 .002.027z" class="cls-22" data-name="Path 15699"/>
                                <path id="Path_15700" d="M136.692 177.125l-3.187 1.84z" class="cls-31" data-name="Path 15700"/>
                                <path id="Path_15701" d="M136.692 177.125l2.012 1.17-3.187 1.84-2.013-1.17 3.187-1.84z" class="cls-36" data-name="Path 15701"/>
                                <path id="Path_15702" d="M133.065 179.147a.153.153 0 0 0 .047.041l2.021 1.174a.33.33 0 0 0 .3 0l3.729-2.153a.139.139 0 0 0 .046-.041.038.038 0 0 0 0-.015.067.067 0 0 0 .01-.032v.385a.1.1 0 0 1-.061.087l-3.729 2.153a.33.33 0 0 1-.3 0l-2.022-1.174a.109.109 0 0 1-.064-.089v-.38a.076.076 0 0 0 .01.03c.01.003.009.008.013.014z" class="cls-22" data-name="Path 15702"/>
                                <path id="Path_15704" d="M134.382 179.593a.135.135 0 0 0-.063.014.135.135 0 0 1 .063-.014z" class="cls-31" data-name="Path 15704"/>
                                <path id="Path_15705" d="M134.461 179.633s.01.009.01.015c0-.006-.007-.01-.01-.015z" class="cls-31" data-name="Path 15705"/>
                                <path id="Path_15707" d="M134.446 179.611c.01.006.011.014.015.022s.01.009.01.015a.045.045 0 0 1-.026.036.129.129 0 0 1-.126 0 .038.038 0 0 1-.026-.047.042.042 0 0 1 .026-.026.146.146 0 0 1 .126 0z" class="cls-22" data-name="Path 15707"/>
                                <path id="Path_15708" d="M133.049 179.1a.076.076 0 0 0 .01.03.018.018 0 0 0 .006.016.156.156 0 0 0 .047.042l2.021 1.174a.331.331 0 0 0 .3 0l3.729-2.153a.139.139 0 0 0 .046-.041v-.015a.071.071 0 0 0 .01-.032.1.1 0 0 0-.06-.086l-2.021-1.175a.343.343 0 0 0-.3 0l-3.729 2.153a.1.1 0 0 0-.062.087zm5.041-1.554v.013a.076.076 0 0 1 .009.028.1.1 0 0 1-.057.078.3.3 0 0 1-.27 0 .115.115 0 0 1-.042-.037.029.029 0 0 0 0-.016v-.026a.081.081 0 0 1 .008-.025l.005-.017a.125.125 0 0 1 .042-.037.305.305 0 0 1 .27 0 .136.136 0 0 1 .035.04zm-3.771 2.064a.146.146 0 0 1 .126 0c.01.006.011.014.015.022s.01.009.01.015a.045.045 0 0 1-.026.036.129.129 0 0 1-.126 0 .038.038 0 0 1-.025-.047.036.036 0 0 1 .026-.025zm-.815-.645l3.188-1.84 2.012 1.169-3.188 1.84z" class="cls-8" data-name="Path 15708"/>
                            </g>
                            <path id="Path_15709" d="M134.98 177.317a.88.88 0 0 1 .512-.253 1.281 1.281 0 0 1 .645.148.521.521 0 0 1 .333.325.3.3 0 0 1-.015.157.328.328 0 0 1-.408.188c-.1-.022-.326-.164-.421-.182a3.576 3.576 0 0 0-.95.41c-.099.062.124-.617.304-.793z" class="cls-20" data-name="Path 15709"/>
                        </g>
                    </g>
                </g>
                <g id="Group_1550" data-name="Group 1550">
                    <g id="Group_1542" data-name="Group 1542">
                        <path id="Path_15722" d="M190.64 150.8c.439-.151 1.382-.175 1.438.411a.2.2 0 0 1 .029.084 5.121 5.121 0 0 1-.053 1.81c-.08.311-.236.839-.6.934-.632.164-.806-.691-.9-1.388-.008.008-.012.018-.02.027-.089.1-.29.121-.341-.037-.179-.541-.24-1.602.447-1.841z" class="cls-20" data-name="Path 15722"/>
                        <g id="Group_1529" data-name="Group 1529">
                            <g id="Group_1522" data-name="Group 1522">
                                <g id="Group_1519" data-name="Group 1519">
                                    <path id="Path_15723" d="M190.424 173.7c.734-.409 2.878-1.737 2.878-1.737.244-.148.549-5.433.8-5.29l.066.038c.348.2.348 6.954 0 7.155l-2.944 1.7a1.137 1.137 0 0 1-1.233-.293c-.352-.32-.564-1.019.433-1.573z" class="cls-38" data-name="Path 15723"/>
                                    <g id="Group_1518" data-name="Group 1518">
                                        <path id="Path_15724" d="M189.729 174.436a.9.9 0 0 0 .3.633 1.188 1.188 0 0 0 1.287.307l3-1.733a.424.424 0 0 1-.155.221l-2.944 1.7a1.137 1.137 0 0 1-1.233-.293.825.825 0 0 1-.255-.835z" class="cls-22" data-name="Path 15724"/>
                                    </g>
                                </g>
                                <g id="Group_1521" data-name="Group 1521">
                                    <path id="Path_15725" d="M195.3 175.719c.734-.409 2.878-1.737 2.878-1.737a.783.783 0 0 1 .8-.008l.066.038a1.811 1.811 0 0 1 0 1.873l-2.944 1.7a1.138 1.138 0 0 1-1.233-.293c-.353-.319-.567-1.018.433-1.573z" class="cls-38" data-name="Path 15725"/>
                                    <g id="Group_1520" data-name="Group 1520">
                                        <path id="Path_15726" d="M194.606 176.456a.9.9 0 0 0 .3.633 1.188 1.188 0 0 0 1.287.307l3-1.733a.42.42 0 0 1-.155.221l-2.944 1.7a1.138 1.138 0 0 1-1.233-.293.825.825 0 0 1-.255-.835z" class="cls-22" data-name="Path 15726"/>
                                    </g>
                                </g>
                            </g>
                            <g id="Group_1525" data-name="Group 1525">
                                <g id="Group_1523" data-name="Group 1523">
                                    <path id="Path_15727" d="M195.556 154.063h4.882c.074 0-1.142 19.932-1.151 20.052a1.386 1.386 0 0 1-1.232 1.311c-.543 0-1.2-.067-1.345-1.311-.01-.121-1.228-20.052-1.154-20.052z" class="cls-39" data-name="Path 15727"/>
                                    <path id="Path_15728" d="M198.593 167.891c.68-3.145 1.584-9.016.251-13.829h1.59c.074 0-1.142 19.932-1.151 20.052a1.845 1.845 0 0 1-.094.408 1.424 1.424 0 0 1-.127.264l-.017.029a1.229 1.229 0 0 1-.152.193l-.025.026a1.253 1.253 0 0 1-.167.142l-.02.013a1.36 1.36 0 0 1-.339.169l-.018.006a1.47 1.47 0 0 1-.129.036h-.018l-.085.015h-.057c-.54 0-1.183-.078-1.33-1.311l-.023-.279a.632.632 0 0 0 .076.079c.65.603 1.642-5.104 1.835-6.013z" class="cls-40" data-name="Path 15728"/>
                                </g>
                                <g id="Group_1524" data-name="Group 1524">
                                    <path id="Path_15729" d="M190.853 152.155h4.879c.074 0-1.142 19.931-1.151 20.052a1.386 1.386 0 0 1-1.233 1.311c-.543 0-1.2-.067-1.345-1.311-.008-.121-1.225-20.052-1.15-20.052z" class="cls-39" data-name="Path 15729"/>
                                    <path id="Path_15730" d="M193.89 165.984c.679-3.145 1.584-9.016.251-13.829h1.59c.074 0-1.142 19.931-1.151 20.052a1.84 1.84 0 0 1-.094.409 1.425 1.425 0 0 1-.127.264l-.017.029a1.192 1.192 0 0 1-.152.194l-.025.026a1.193 1.193 0 0 1-.167.142l-.02.013a1.36 1.36 0 0 1-.339.169l-.018.006q-.072.022-.129.036h-.018l-.085.015h-.054c-.54 0-1.183-.078-1.33-1.311l-.023-.278a.814.814 0 0 0 .076.079c.647.6 1.642-5.109 1.832-6.016z" class="cls-40" data-name="Path 15730"/>
                                </g>
                            </g>
                            <g id="Group_1528" data-name="Group 1528">
                                <g id="Group_1526" data-name="Group 1526">
                                    <path id="Path_15731" d="M196.409 175.19a1.818 1.818 0 0 1 .7.5c.114.132-.078.325-.192.192a1.525 1.525 0 0 0-.583-.427c-.157-.068-.087-.335.075-.265z" class="cls-8" data-name="Path 15731"/>
                                    <path id="Path_15732" d="M195.894 175.562a1.818 1.818 0 0 1 .7.5c.114.132-.078.325-.192.192a1.529 1.529 0 0 0-.582-.427c-.158-.068-.088-.327.074-.265z" class="cls-8" data-name="Path 15732"/>
                                    <path id="Path_15733" d="M196.6 174.643c.02-.053.04-.1.058-.142a.578.578 0 0 1 .109-.179c.158-.159.447-.046.617.038a1.022 1.022 0 0 1 .5.475c.072.221-.155.377-.27.527-.028.037-.049.078-.078.114a.222.222 0 0 1-.314.023.248.248 0 0 1-.023-.023 1.543 1.543 0 0 0-.492-.292c-.244-.073-.187-.337-.107-.541z" class="cls-41" data-name="Path 15733"/>
                                </g>
                                <g id="Group_1527" data-name="Group 1527">
                                    <path id="Path_15734" d="M191.532 173.17a1.818 1.818 0 0 1 .7.5c.113.132-.078.325-.192.192a1.525 1.525 0 0 0-.583-.427c-.157-.068-.087-.335.075-.265z" class="cls-8" data-name="Path 15734"/>
                                    <path id="Path_15735" d="M191.019 173.542a1.818 1.818 0 0 1 .7.5c.114.132-.078.325-.192.192a1.525 1.525 0 0 0-.583-.427c-.157-.068-.092-.33.075-.265z" class="cls-8" data-name="Path 15735"/>
                                    <path id="Path_15736" d="M191.719 172.623c.02-.053.041-.1.058-.142a.578.578 0 0 1 .109-.179c.159-.16.448-.046.618.038a1.022 1.022 0 0 1 .5.475c.072.221-.156.377-.27.527-.028.037-.05.078-.079.114a.223.223 0 0 1-.315.023.239.239 0 0 1-.022-.023 1.507 1.507 0 0 0-.492-.292c-.239-.073-.182-.337-.107-.541z" class="cls-41" data-name="Path 15736"/>
                                </g>
                            </g>
                        </g>
                        <g id="Group_1538" data-name="Group 1538">
                            <g id="Group_1537" data-name="Group 1537">
                                <path id="Path_15745" d="M199.838 154.261c.438-.151 1.381-.175 1.438.411a.2.2 0 0 1 .029.084 5.115 5.115 0 0 1-.053 1.809c-.08.311-.236.839-.6.934-.632.164-.806-.691-.9-1.388-.007.009-.011.018-.019.027-.089.1-.291.121-.342-.036-.18-.549-.239-1.602.447-1.841z" class="cls-20" data-name="Path 15745"/>
                                <g id="Group_1536" data-name="Group 1536">
                                    <path id="Path_15746" d="M190.359 140.2a3.616 3.616 0 0 1 5.415-2.942l2.3 1.327c.013 0 .278.146.642.357a4.85 4.85 0 0 1 2.411 3.874c.176 2.664.528 8.76.468 11.273a1.585 1.585 0 0 1-1.3 1.537 3.067 3.067 0 0 1-1.36-.086 1.577 1.577 0 0 0-.7-.032c-4.52.726-6.438-1.172-7.694-3.529a.214.214 0 0 1-.013-.043.824.824 0 0 1-.653-.479c-.075-.201.225-6.382.484-11.257z" class="cls-42" data-name="Path 15746"/>
                                    <path id="Path_15747" d="M191.118 142.4s-.4 9.9-.574 9.574a.212.212 0 0 1-.013-.043.824.824 0 0 1-.653-.479c.786-.27 1.196-8.86 1.24-9.052z" class="cls-43" data-name="Path 15747"/>
                                    <path id="Path_15748" d="M198.321 143.357c.447 5.4.027 10.951.615 12.174a1.577 1.577 0 0 0-.7-.032c.011-4.621-.279-12.358.085-12.142z" class="cls-43" data-name="Path 15748"/>
                                </g>
                            </g>
                        </g>
                        <g id="Group_1541" data-name="Group 1541">
                            <path id="Path_15750" d="M188.753 139.8a23.079 23.079 0 0 0 .609-8.222l9.342 2.7c-.221-.083-.93.3-1.128.378a9.73 9.73 0 0 0-2.421 1.35 5.169 5.169 0 0 0-1.823 2.465c-.552 1.774.512 4.029-1.72 5a2.252 2.252 0 0 1-3.123-1.97 5.314 5.314 0 0 1 .264-1.701z" class="cls-44" data-name="Path 15750"/>
                            <g id="Group_1539" data-name="Group 1539">
                                <path id="Path_15751" d="M189.878 133c0-3.223 1.909-6.592 5.132-6.592a5.836 5.836 0 0 1 5.836 5.836c0 3.213-2.6 6.251-5.8 6.272v1.884a1.816 1.816 0 0 1-1.816-1.816v-.336c-2.13-.699-3.352-2.676-3.352-5.248z" class="cls-20" data-name="Path 15751"/>
                                <path id="Path_15752" d="M194.45 140.29q-.037-1.362-.08-2.724a6.546 6.546 0 0 0-.218-2.6c-.763-1.5-2.95-1.894-4.121-2.944a.261.261 0 0 0-.085-.05c.358-2.872 2.183-5.56 5.063-5.56a5.836 5.836 0 0 1 5.836 5.836c0 3.213-2.6 6.251-5.8 6.272v1.88a1.782 1.782 0 0 1-.595-.11z" class="cls-29" data-name="Path 15752"/>
                            </g>
                            <g id="Group_1540" data-name="Group 1540">
                                <path id="Path_15753" d="M190.491 127.73l1.169-.675a6.714 6.714 0 0 1 6.9.116 5.768 5.768 0 0 1 2.623 4.923.786.786 0 0 0 .137.443 6.306 6.306 0 0 1 1.263 3.288c.041 1.385-.677 2.2-1.339 3.234a9.906 9.906 0 0 1 .958 1.983 3.811 3.811 0 0 1-.374 2.232 4.592 4.592 0 0 1-4.175 2.366c-2.137-.1-2.676-1.866-2.571-3.722.059-1.042-.053-2.056-.044-3.1l.023-2.829a3.42 3.42 0 0 0-.109-.871 7.974 7.974 0 0 1-5.266-3.007 2.984 2.984 0 0 1 .524-4.188c.08-.062.163-.12.248-.174z" class="cls-44" data-name="Path 15753"/>
                                <path id="Path_15754" d="M196.725 127.929a10.508 10.508 0 0 0-3.43 2.118 4.487 4.487 0 0 1 3.43-2.118z" class="cls-45" data-name="Path 15754"/>
                            </g>
                        </g>
                    </g>
                </g>
                <g id="Group_1601" data-name="Group 1601">
                    <g id="Group_1575" data-name="Group 1575">
                        <path id="Path_15764" d="M109.359 150.449c-.439-.15-1.382-.175-1.439.411a.2.2 0 0 0-.029.084 5.116 5.116 0 0 0 .053 1.809c.08.311.236.839.6.934.632.165.806-.691.9-1.388.007.009.011.018.019.027.089.1.291.121.342-.036.18-.545.238-1.606-.446-1.841z" class="cls-20" data-name="Path 15764"/>
                        <g id="Group_1562" data-name="Group 1562">
                            <g id="Group_1555" data-name="Group 1555">
                                <g id="Group_1552" data-name="Group 1552">
                                    <path id="Path_15765" d="M109.576 173.345c-.734-.409-2.878-1.738-2.878-1.738-.244-.147-.549-5.432-.8-5.29l-.066.039c-.348.2-.348 6.954 0 7.155l2.944 1.7a1.138 1.138 0 0 0 1.233-.294c.348-.317.563-1.017-.433-1.572z" class="cls-46" data-name="Path 15765"/>
                                    <g id="Group_1551" data-name="Group 1551">
                                        <path id="Path_15766" d="M110.27 174.082a.906.906 0 0 1-.3.634 1.19 1.19 0 0 1-1.287.306l-3-1.733a.424.424 0 0 0 .155.221l2.944 1.7a1.138 1.138 0 0 0 1.233-.294.824.824 0 0 0 .255-.834z" class="cls-47" data-name="Path 15766"/>
                                    </g>
                                </g>
                                <g id="Group_1554" data-name="Group 1554">
                                    <path id="Path_15767" d="M104.7 175.366c-.734-.409-2.878-1.738-2.878-1.738a.788.788 0 0 0-.8-.008l-.066.039a1.811 1.811 0 0 0 0 1.873l2.944 1.7a1.138 1.138 0 0 0 1.233-.294c.353-.319.567-1.017-.433-1.572z" class="cls-46" data-name="Path 15767"/>
                                    <g id="Group_1553" data-name="Group 1553">
                                        <path id="Path_15768" d="M105.394 176.1a.9.9 0 0 1-.3.633 1.188 1.188 0 0 1-1.287.307l-3-1.733a.42.42 0 0 0 .155.221l2.944 1.7a1.138 1.138 0 0 0 1.233-.294.824.824 0 0 0 .255-.834z" class="cls-47" data-name="Path 15768"/>
                                    </g>
                                </g>
                            </g>
                            <g id="Group_1558" data-name="Group 1558">
                                <g id="Group_1556" data-name="Group 1556">
                                    <path id="Path_15769" d="M104.444 153.709h-4.879c-.074 0 1.142 19.931 1.151 20.052a1.386 1.386 0 0 0 1.233 1.311c.543 0 1.2-.067 1.345-1.311.006-.121 1.226-20.052 1.15-20.052z" class="cls-48" data-name="Path 15769"/>
                                    <path id="Path_15770" d="M101.406 167.538c-.68-3.145-1.584-9.016-.251-13.829h-1.59c-.074 0 1.142 19.931 1.151 20.052a1.845 1.845 0 0 0 .094.408 1.426 1.426 0 0 0 .127.264l.017.029a1.194 1.194 0 0 0 .152.194l.025.026a1.322 1.322 0 0 0 .167.142l.02.013a1.36 1.36 0 0 0 .339.169l.018.006c.048.016.091.027.129.036h.018l.085.015h.056c.54 0 1.183-.078 1.33-1.311l.023-.278a.821.821 0 0 1-.077.079c-.648.6-1.639-5.108-1.833-6.015z" class="cls-41" data-name="Path 15770"/>
                                </g>
                                <g id="Group_1557" data-name="Group 1557">
                                    <path id="Path_15771" d="M109.146 151.8h-4.878c-.075 0 1.142 19.932 1.151 20.053a1.386 1.386 0 0 0 1.233 1.311c.543 0 1.2-.067 1.345-1.311.003-.121 1.224-20.053 1.149-20.053z" class="cls-48" data-name="Path 15771"/>
                                    <path id="Path_15772" d="M106.109 165.63c-.679-3.145-1.584-9.016-.251-13.829h-1.59c-.075 0 1.142 19.932 1.151 20.053a1.845 1.845 0 0 0 .094.408 1.5 1.5 0 0 0 .128.264.276.276 0 0 0 .017.029 1.193 1.193 0 0 0 .152.194l.025.026a1.321 1.321 0 0 0 .167.142l.02.013a1.4 1.4 0 0 0 .339.169l.018.006c.048.016.091.027.129.036h.018l.086.015h.054c.54 0 1.183-.078 1.33-1.31l.023-.279a.709.709 0 0 1-.076.079c-.65.599-1.638-5.109-1.834-6.016z" class="cls-41" data-name="Path 15772"/>
                                </g>
                            </g>
                            <g id="Group_1561" data-name="Group 1561">
                                <g id="Group_1559" data-name="Group 1559">
                                    <path id="Path_15773" d="M103.59 174.836a1.818 1.818 0 0 0-.7.5c-.114.132.078.325.192.192a1.54 1.54 0 0 1 .582-.427c.158-.068.088-.33-.074-.265z" class="cls-1" data-name="Path 15773"/>
                                    <path id="Path_15774" d="M104.105 175.208a1.818 1.818 0 0 0-.7.5c-.114.132.078.325.192.192a1.529 1.529 0 0 1 .582-.427c.158-.073.088-.33-.074-.265z" class="cls-1" data-name="Path 15774"/>
                                    <path id="Path_15775" d="M103.4 174.289c-.02-.053-.04-.1-.058-.142a.578.578 0 0 0-.109-.179c-.158-.16-.447-.046-.617.038a1.026 1.026 0 0 0-.5.475c-.072.221.156.377.27.527.028.037.05.078.079.114a.222.222 0 0 0 .313.024.136.136 0 0 0 .024-.024 1.525 1.525 0 0 1 .492-.292c.242-.074.185-.338.106-.541z" class="cls-47" data-name="Path 15775"/>
                                </g>
                                <g id="Group_1560" data-name="Group 1560">
                                    <path id="Path_15776" d="M108.466 172.816a1.818 1.818 0 0 0-.7.5c-.114.132.078.325.192.192a1.525 1.525 0 0 1 .583-.427c.159-.068.087-.327-.075-.265z" class="cls-1" data-name="Path 15776"/>
                                    <path id="Path_15777" d="M108.98 173.188a1.818 1.818 0 0 0-.7.5c-.114.132.078.325.192.192a1.525 1.525 0 0 1 .583-.427c.157-.068.087-.33-.075-.265z" class="cls-1" data-name="Path 15777"/>
                                    <path id="Path_15778" d="M108.279 172.269c-.02-.053-.041-.1-.058-.142a.59.59 0 0 0-.109-.179c-.158-.159-.447-.046-.617.038a1.022 1.022 0 0 0-.5.475c-.072.221.156.376.27.527.028.037.049.078.079.113a.224.224 0 0 0 .315.023.237.237 0 0 0 .022-.023 1.507 1.507 0 0 1 .492-.292c.239-.072.182-.337.106-.54z" class="cls-47" data-name="Path 15778"/>
                                </g>
                            </g>
                        </g>
                        <g id="Group_1571" data-name="Group 1571">
                            <g id="Group_1568" data-name="Group 1568">
                                <g id="Group_1563" data-name="Group 1563">
                                    <path id="Path_15779" d="M100.318 155.573a1.236 1.236 0 0 0-.678-.2c-.493-.016-.824.329-.826.975v1.272a.259.259 0 0 0 .119.2.237.237 0 0 0 .134.019c.039 0 .126-.013.126-.089v-1.27c0-.472.226-.756.557-.788a1.09 1.09 0 0 1 .425.148 2.462 2.462 0 0 1 1.115 1.931v1.255a.289.289 0 0 0 .12.206c.064.047.261.028.261-.068v-1.255a2.988 2.988 0 0 0-1.353-2.336z" class="cls-24" data-name="Path 15779"/>
                                    <path id="Path_15780" d="M98.814 156.35v1.272a.259.259 0 0 0 .119.2c.066.038.12.006.119-.07v-1.27c0-.709.506-1 1.123-.64a2.462 2.462 0 0 1 1.115 1.931v1.255a.261.261 0 0 0 .12.206c.066.038.12.008.12-.068v-1.255a2.989 2.989 0 0 0-1.354-2.345c-.749-.425-1.36-.077-1.362.784z" class="cls-25" data-name="Path 15780"/>
                                </g>
                                <g id="Group_1566" data-name="Group 1566">
                                    <path id="Path_15781" d="M96.985 164.443l1.115-.643v-7.126l-1.116.644z" class="cls-27" data-name="Path 15781"/>
                                    <g id="Group_1564" data-name="Group 1564">
                                        <path id="Path_15782" d="M98.1 156.673v7.127l4.281 2.471v-7.126z" class="cls-27" data-name="Path 15782"/>
                                    </g>
                                    <g id="Group_1565" data-name="Group 1565">
                                        <path id="Path_15783" d="M96.985 157.316v7.127l4.281 2.471v-7.126z" class="cls-38" data-name="Path 15783"/>
                                    </g>
                                    <path id="Path_15784" d="M101.265 166.914l1.116-.644v-7.126l-1.116.644z" class="cls-41" data-name="Path 15784"/>
                                </g>
                                <g id="Group_1567" data-name="Group 1567">
                                    <path id="Path_15785" d="M99.224 156.013a1.244 1.244 0 0 0-.678-.2c-.493-.016-.824.329-.826.975v1.272a.261.261 0 0 0 .119.205.246.246 0 0 0 .134.019c.039 0 .126-.013.126-.089v-1.269c0-.472.226-.756.557-.788a1.091 1.091 0 0 1 .425.149 2.46 2.46 0 0 1 1.115 1.931v1.255a.288.288 0 0 0 .12.207c.064.047.261.027.261-.068v-1.255a2.99 2.99 0 0 0-1.353-2.344z" class="cls-24" data-name="Path 15785"/>
                                    <path id="Path_15786" d="M97.72 156.79v1.272a.261.261 0 0 0 .119.205c.066.038.12.006.119-.07v-1.269c0-.709.506-1 1.123-.64a2.46 2.46 0 0 1 1.115 1.931v1.255a.262.262 0 0 0 .12.207c.066.038.12.008.12-.068v-1.255a2.989 2.989 0 0 0-1.354-2.345c-.749-.432-1.36-.084-1.362.777z" class="cls-25" data-name="Path 15786"/>
                                </g>
                            </g>
                            <g id="Group_1570" data-name="Group 1570">
                                <path id="Path_15787" d="M100.163 153.907c-.439-.15-1.381-.175-1.438.411a.2.2 0 0 0-.029.084 5.069 5.069 0 0 0 .053 1.809c.08.311.236.839.6.934.633.164.807-.691.9-1.388.007.009.011.018.019.027.089.1.291.122.342-.036.178-.548.236-1.606-.447-1.841z" class="cls-20" data-name="Path 15787"/>
                                <g id="Group_1569" data-name="Group 1569">
                                    <path id="Path_15788" d="M109.64 139.837a3.616 3.616 0 0 0-5.415-2.942l-2.3 1.327c-.013 0-.278.146-.642.357a4.85 4.85 0 0 0-2.411 3.874c-.176 2.664-.529 8.76-.468 11.274a1.585 1.585 0 0 0 1.3 1.537 3.067 3.067 0 0 0 1.36-.086 1.577 1.577 0 0 1 .7-.032c4.52.726 6.438-1.172 7.694-3.529a.214.214 0 0 0 .013-.043.823.823 0 0 0 .653-.479c.076-.195-.224-6.374-.484-11.258z" class="cls-49" data-name="Path 15788"/>
                                    <path id="Path_15789" d="M108.881 142.041s.4 9.9.574 9.574a.214.214 0 0 0 .013-.043.823.823 0 0 0 .653-.479c-.786-.265-1.196-8.855-1.24-9.052z" class="cls-50" data-name="Path 15789"/>
                                    <path id="Path_15790" d="M101.679 143c-.447 5.4-.027 10.951-.615 12.174a1.577 1.577 0 0 1 .7-.032c-.013-4.618.277-12.35-.085-12.142z" class="cls-50" data-name="Path 15790"/>
                                </g>
                            </g>
                        </g>
                        <g id="Group_1574" data-name="Group 1574">
                            <path id="Path_15792" d="M111.242 139.445a23.079 23.079 0 0 1-.609-8.222l-9.342 2.7c.221-.082.93.3 1.128.378a9.73 9.73 0 0 1 2.421 1.35 5.17 5.17 0 0 1 1.823 2.465c.552 1.774-.512 4.029 1.72 5a2.252 2.252 0 0 0 3.123-1.97 5.342 5.342 0 0 0-.264-1.701z" class="cls-51" data-name="Path 15792"/>
                            <g id="Group_1572" data-name="Group 1572">
                                <path id="Path_15793" d="M110.12 132.646c0-3.223-1.908-6.592-5.132-6.592a5.836 5.836 0 0 0-5.836 5.836c0 3.213 2.6 6.251 5.8 6.272v1.881a1.816 1.816 0 0 0 1.816-1.816v-.336c2.132-.691 3.352-2.673 3.352-5.245z" class="cls-20" data-name="Path 15793"/>
                                <path id="Path_15794" d="M105.548 139.936l.08-2.724a6.565 6.565 0 0 1 .218-2.6c.763-1.5 2.95-1.894 4.121-2.944a.261.261 0 0 1 .085-.05c-.358-2.871-2.183-5.56-5.063-5.56a5.836 5.836 0 0 0-5.836 5.836c0 3.213 2.6 6.251 5.8 6.272v1.881a1.781 1.781 0 0 0 .595-.111z" class="cls-29" data-name="Path 15794"/>
                            </g>
                            <g id="Group_1573" data-name="Group 1573">
                                <path id="Path_15795" d="M109.512 127.376l-1.168-.675a6.712 6.712 0 0 0-6.9.116 5.768 5.768 0 0 0-2.623 4.922.793.793 0 0 1-.137.443 6.306 6.306 0 0 0-1.263 3.288c-.04 1.385.677 2.2 1.339 3.234a9.879 9.879 0 0 0-.958 1.983 3.811 3.811 0 0 0 .374 2.232 4.593 4.593 0 0 0 4.175 2.367c2.137-.1 2.676-1.867 2.571-3.722-.059-1.042.053-2.056.044-3.1l-.023-2.829a3.406 3.406 0 0 1 .109-.87 7.979 7.979 0 0 0 5.266-3.008 2.984 2.984 0 0 0-.524-4.188 3.25 3.25 0 0 0-.248-.174z" class="cls-51" data-name="Path 15795"/>
                                <path id="Path_15796" d="M103.273 127.575a10.487 10.487 0 0 1 3.43 2.118 4.483 4.483 0 0 0-3.43-2.118z" class="cls-52" data-name="Path 15796"/>
                            </g>
                        </g>
                    </g>
                </g>
            </g>
        </g>
    </g>
</svg>
